EESchema Schematic File Version 2
LIBS:power
LIBS:device
LIBS:transistors
LIBS:conn
LIBS:linear
LIBS:regul
LIBS:74xx
LIBS:cmos4000
LIBS:adc-dac
LIBS:memory
LIBS:xilinx
LIBS:special
LIBS:microcontrollers
LIBS:dsp
LIBS:microchip
LIBS:analog_switches
LIBS:motorola
LIBS:texas
LIBS:intel
LIBS:audio
LIBS:interface
LIBS:digital-audio
LIBS:philips
LIBS:display
LIBS:cypress
LIBS:siliconi
LIBS:opto
LIBS:atmel
LIBS:contrib
LIBS:valves
LIBS:SBC_Schematic-cache
EELAYER 27 0
EELAYER END
$Descr A3 16535 11693
encoding utf-8
Sheet 1 5
Title ""
Date "27 aug 2014"
Rev ""
Comp ""
Comment1 ""
Comment2 ""
Comment3 ""
Comment4 ""
$EndDescr
$Comp
L AS6C6264A U?
U 1 1 53D1B666
P 7100 1500
F 0 "U?" H 7100 1400 60  0000 C CNN
F 1 "AS6C6264A" H 7100 1500 60  0000 C CNN
F 2 "" H 7100 1400 60  0000 C CNN
F 3 "" H 7100 1400 60  0000 C CNN
	1    7100 1500
	1    0    0    -1  
$EndComp
$Comp
L W65C22 U?
U 1 1 53D1B6A2
P 12400 8450
F 0 "U?" H 12400 8450 60  0000 C CNN
F 1 "W65C22" H 12400 8600 60  0000 C CNN
F 2 "" H 12400 8450 60  0000 C CNN
F 3 "" H 12400 8450 60  0000 C CNN
	1    12400 8450
	1    0    0    -1  
$EndComp
Text GLabel 5650 1150 1    60   Input ~ 0
Data Bus
Entry Wire Line
	5550 1850 5650 1750
Entry Wire Line
	5550 1950 5650 1850
Entry Wire Line
	5550 2050 5650 1950
Entry Wire Line
	5550 2150 5650 2050
Entry Wire Line
	5550 2250 5650 2150
Entry Wire Line
	5550 2350 5650 2250
Entry Wire Line
	5550 2450 5650 2350
Entry Wire Line
	5550 2550 5650 2450
Entry Wire Line
	5500 2650 5600 2550
Entry Wire Line
	5500 2750 5600 2650
Entry Wire Line
	5500 2850 5600 2750
Entry Wire Line
	5500 2950 5600 2850
Entry Wire Line
	3250 2150 3350 2050
Entry Wire Line
	3250 2250 3350 2150
Entry Wire Line
	3250 2350 3350 2250
Entry Wire Line
	3250 2450 3350 2350
Entry Wire Line
	3250 2550 3350 2450
Entry Wire Line
	3250 2650 3350 2550
Entry Wire Line
	3250 2750 3350 2650
Entry Wire Line
	3250 2850 3350 2750
Entry Wire Line
	3250 2950 3350 2850
Entry Wire Line
	3250 3050 3350 2950
Entry Wire Line
	3250 3150 3350 3050
Entry Wire Line
	3250 2050 3350 1950
Text GLabel 5600 3250 3    60   Input ~ 0
Address Bus
$Comp
L W65C51S U?
U 1 1 53D1DC10
P 6100 9700
F 0 "U?" H 6100 9700 60  0000 C CNN
F 1 "W65C51S" H 6100 9800 60  0000 C CNN
F 2 "" H 6100 9700 60  0000 C CNN
F 3 "" H 6100 9700 60  0000 C CNN
	1    6100 9700
	1    0    0    -1  
$EndComp
$Comp
L W65C816S U?
U 1 1 53D1DE1B
P 3950 1850
F 0 "U?" H 4150 1800 60  0000 C CNN
F 1 "W65C816S" H 4150 1950 60  0000 C CNN
F 2 "~" H 4150 1950 60  0000 C CNN
F 3 "~" H 4150 1950 60  0000 C CNN
	1    3950 1850
	1    0    0    -1  
$EndComp
Text Label 5200 1450 0    60   ~ 0
PHI2
Text Label 5000 1850 0    60   ~ 0
D0
Text Label 5000 1950 0    60   ~ 0
D1
Text Label 5000 2050 0    60   ~ 0
D2
Text Label 5000 2150 0    60   ~ 0
D3
Text Label 5000 2250 0    60   ~ 0
D4
Text Label 5000 2350 0    60   ~ 0
D5
Text Label 5000 2450 0    60   ~ 0
D6
Text Label 5000 2550 0    60   ~ 0
D7
Text Label 3350 1950 2    60   ~ 0
A0
Text Label 3350 2050 2    60   ~ 0
A1
Text Label 3350 2150 2    60   ~ 0
A2
Text Label 3350 2250 2    60   ~ 0
A3
Text Label 3350 2350 2    60   ~ 0
A4
Text Label 3350 2450 2    60   ~ 0
A5
Text Label 3350 2550 2    60   ~ 0
A6
Text Label 3350 2650 2    60   ~ 0
A7
Text Label 3350 2750 2    60   ~ 0
A8
Text Label 3350 2850 2    60   ~ 0
A9
Text Label 3350 2950 2    60   ~ 0
A10
Text Label 3350 3050 2    60   ~ 0
A11
Text Label 5000 2950 0    60   ~ 0
A12
Text Label 5000 2850 0    60   ~ 0
A13
Text Label 5000 2750 0    60   ~ 0
A14
Text Label 5000 2650 0    60   ~ 0
A15
$Comp
L DM7400 U?
U 1 1 53DB0C89
P 12550 1500
F 0 "U?" H 12550 1500 60  0000 C CNN
F 1 "DM7400" H 12550 1800 60  0000 C CNN
F 2 "" H 12550 1500 60  0000 C CNN
F 3 "" H 12550 1500 60  0000 C CNN
	1    12550 1500
	1    0    0    -1  
$EndComp
$Comp
L DM7400 U?
U 1 1 53DB0C96
P 14500 2900
F 0 "U?" H 14500 2900 60  0000 C CNN
F 1 "DM7400" H 14500 3200 60  0000 C CNN
F 2 "" H 14500 2900 60  0000 C CNN
F 3 "" H 14500 2900 60  0000 C CNN
	1    14500 2900
	1    0    0    -1  
$EndComp
Text Label 10800 1100 0    60   ~ 0
A15
Text Label 11600 1450 0    60   ~ 0
PHI2
Text Label 14100 1450 0    60   ~ 0
~CS~ RAM
Text Label 14100 1350 0    60   ~ 0
~CS~/ ~OE~ ROM
Text Label 13300 1350 0    60   ~ 0
~A15
Text Label 11600 1350 0    60   ~ 0
~A15
Text Label 10800 1600 0    60   ~ 0
A14
Text Label 11600 1700 0    60   ~ 0
~A15
Text Label 11600 1850 0    60   ~ 0
A13
Text Label 13650 2750 0    60   ~ 0
A11
Text Label 13650 2500 0    60   ~ 0
A12
Text Label 13650 3000 0    60   ~ 0
A10
Text Label 13650 3250 0    60   ~ 0
A9
Text Label 14100 1650 0    60   ~ 0
~CS~ VIA1
Text Label 15250 2750 0    60   ~ 0
~CS~ VIA2
Text Label 15250 2850 0    60   ~ 0
~CS~ ACIA1
Text Label 15250 2950 0    60   ~ 0
~CS~ ACIA2
Text Label 15250 3050 0    60   ~ 0
~CS~ SID
$Comp
L VCC #PWR?
U 1 1 53DB1193
P 15250 2500
F 0 "#PWR?" H 15250 2600 30  0001 C CNN
F 1 "VCC" H 15250 2600 30  0000 C CNN
F 2 "" H 15250 2500 60  0000 C CNN
F 3 "" H 15250 2500 60  0000 C CNN
	1    15250 2500
	0    1    1    0   
$EndComp
$Comp
L GND #PWR?
U 1 1 53DB11BC
P 15250 2600
F 0 "#PWR?" H 15250 2600 30  0001 C CNN
F 1 "GND" H 15250 2530 30  0001 C CNN
F 2 "" H 15250 2600 60  0000 C CNN
F 3 "" H 15250 2600 60  0000 C CNN
	1    15250 2600
	0    -1   -1   0   
$EndComp
$Comp
L GND #PWR?
U 1 1 53DB11C9
P 13300 1200
F 0 "#PWR?" H 13300 1200 30  0001 C CNN
F 1 "GND" H 13300 1130 30  0001 C CNN
F 2 "" H 13300 1200 60  0000 C CNN
F 3 "" H 13300 1200 60  0000 C CNN
	1    13300 1200
	0    -1   -1   0   
$EndComp
$Sheet
S 10550 600  5500 3550
U 53DB12D3
F0 "GlueLogic" 50
F1 "GlueLogic.sch" 50
$EndSheet
$Comp
L DS1813 U?
U 1 1 53DBDB78
P 950 1900
F 0 "U?" H 950 1900 60  0000 C CNN
F 1 "DS1813" H 950 2000 60  0000 C CNN
F 2 "" H 950 1900 60  0000 C CNN
F 3 "" H 950 1900 60  0000 C CNN
	1    950  1900
	1    0    0    -1  
$EndComp
$Comp
L +5V #PWR?
U 1 1 53DBDB87
P 950 2450
F 0 "#PWR?" H 950 2540 20  0001 C CNN
F 1 "+5V" H 950 2540 30  0000 C CNN
F 2 "" H 950 2450 60  0000 C CNN
F 3 "" H 950 2450 60  0000 C CNN
	1    950  2450
	-1   0    0    1   
$EndComp
$Comp
L GND #PWR?
U 1 1 53DBDB96
P 1050 2450
F 0 "#PWR?" H 1050 2450 30  0001 C CNN
F 1 "GND" H 1050 2380 30  0001 C CNN
F 2 "" H 1050 2450 60  0000 C CNN
F 3 "" H 1050 2450 60  0000 C CNN
	1    1050 2450
	1    0    0    -1  
$EndComp
Text Label 850  3050 1    60   ~ 0
~RST
$Comp
L SW_PUSH SW?
U 1 1 53DBDC04
P 1150 2850
F 0 "SW?" H 1300 2960 50  0000 C CNN
F 1 "SW_PUSH" H 1150 2770 50  0000 C CNN
F 2 "~" H 1150 2850 60  0000 C CNN
F 3 "~" H 1150 2850 60  0000 C CNN
	1    1150 2850
	1    0    0    -1  
$EndComp
$Comp
L GND #PWR?
U 1 1 53DBDC41
P 1550 2850
F 0 "#PWR?" H 1550 2850 30  0001 C CNN
F 1 "GND" H 1550 2780 30  0001 C CNN
F 2 "" H 1550 2850 60  0000 C CNN
F 3 "" H 1550 2850 60  0000 C CNN
	1    1550 2850
	0    -1   -1   0   
$EndComp
Text Label 5200 1150 0    60   ~ 0
~RST
$Comp
L GND #PWR?
U 1 1 53E17ED5
P 5000 3050
F 0 "#PWR?" H 5000 3050 30  0001 C CNN
F 1 "GND" H 5000 2980 30  0001 C CNN
F 2 "" H 5000 3050 60  0000 C CNN
F 3 "" H 5000 3050 60  0000 C CNN
	1    5000 3050
	0    -1   -1   0   
$EndComp
$Comp
L +5V #PWR?
U 1 1 53E18590
P 3150 1350
F 0 "#PWR?" H 3150 1440 20  0001 C CNN
F 1 "+5V" H 3150 1440 30  0000 C CNN
F 2 "" H 3150 1350 60  0000 C CNN
F 3 "" H 3150 1350 60  0000 C CNN
	1    3150 1350
	0    -1   -1   0   
$EndComp
$Comp
L +5V #PWR?
U 1 1 53E185FD
P 5200 1550
F 0 "#PWR?" H 5200 1640 20  0001 C CNN
F 1 "+5V" H 5200 1640 30  0000 C CNN
F 2 "" H 5200 1550 60  0000 C CNN
F 3 "" H 5200 1550 60  0000 C CNN
	1    5200 1550
	0    1    1    0   
$EndComp
NoConn ~ 5000 1650
$Comp
L CONN_5 P?
U 1 1 53E186D2
P 2150 1550
F 0 "P?" V 2100 1550 50  0000 C CNN
F 1 "CONN_5" V 2200 1550 50  0000 C CNN
F 2 "" H 2150 1550 60  0000 C CNN
F 3 "" H 2150 1550 60  0000 C CNN
	1    2150 1550
	-1   0    0    1   
$EndComp
NoConn ~ 3350 1550
$Comp
L R R?
U 1 1 53E188A4
P 1800 1550
F 0 "R?" V 1880 1550 40  0000 C CNN
F 1 "3.3k" V 1807 1551 40  0000 C CNN
F 2 "~" V 1730 1550 30  0000 C CNN
F 3 "~" H 1800 1550 30  0000 C CNN
	1    1800 1550
	1    0    0    -1  
$EndComp
$Comp
L +5V #PWR?
U 1 1 53E188B1
P 1800 1050
F 0 "#PWR?" H 1800 1140 20  0001 C CNN
F 1 "+5V" H 1800 1140 30  0000 C CNN
F 2 "" H 1800 1050 60  0000 C CNN
F 3 "" H 1800 1050 60  0000 C CNN
	1    1800 1050
	1    0    0    -1  
$EndComp
Text Label 1800 2000 1    60   ~ 0
~IRQ
NoConn ~ 5000 1350
Text Label 5200 1750 0    60   ~ 0
~RW
$Comp
L R R?
U 1 1 53E18AAD
P 3100 1250
F 0 "R?" V 3180 1250 40  0000 C CNN
F 1 "3.3k" V 3107 1251 40  0000 C CNN
F 2 "~" V 3030 1250 30  0000 C CNN
F 3 "~" H 3100 1250 30  0000 C CNN
	1    3100 1250
	0    -1   -1   0   
$EndComp
$Comp
L +5V #PWR?
U 1 1 53E18AB3
P 2850 1250
F 0 "#PWR?" H 2850 1340 20  0001 C CNN
F 1 "+5V" H 2850 1340 30  0000 C CNN
F 2 "" H 2850 1250 60  0000 C CNN
F 3 "" H 2850 1250 60  0000 C CNN
	1    2850 1250
	0    -1   -1   0   
$EndComp
$Comp
L CONN_1 P?
U 1 1 53E18C02
P 5150 1250
F 0 "P?" H 5230 1250 40  0000 L CNN
F 1 "CONN_1" H 5150 1305 30  0001 C CNN
F 2 "" H 5150 1250 60  0000 C CNN
F 3 "" H 5150 1250 60  0000 C CNN
	1    5150 1250
	1    0    0    -1  
$EndComp
$Comp
L CONN_1 P?
U 1 1 53E18C0F
P 3200 1750
F 0 "P?" H 3280 1750 40  0000 L CNN
F 1 "CONN_1" H 3200 1805 30  0001 C CNN
F 2 "" H 3200 1750 60  0000 C CNN
F 3 "" H 3200 1750 60  0000 C CNN
	1    3200 1750
	-1   0    0    1   
$EndComp
NoConn ~ 3350 1150
Text Label 8650 3800 0    60   ~ 0
~CS~/ ~OE~ ROM
$Comp
L +5V #PWR?
U 1 1 53E18FDA
P 8200 3100
F 0 "#PWR?" H 8200 3190 20  0001 C CNN
F 1 "+5V" H 8200 3190 30  0000 C CNN
F 2 "" H 8200 3100 60  0000 C CNN
F 3 "" H 8200 3100 60  0000 C CNN
	1    8200 3100
	0    1    1    0   
$EndComp
$Comp
L +5V #PWR?
U 1 1 53E18FE0
P 13300 1100
F 0 "#PWR?" H 13300 1190 20  0001 C CNN
F 1 "+5V" H 13300 1190 30  0000 C CNN
F 2 "" H 13300 1100 60  0000 C CNN
F 3 "" H 13300 1100 60  0000 C CNN
	1    13300 1100
	0    1    1    0   
$EndComp
NoConn ~ 6300 3000
$Comp
L GND #PWR?
U 1 1 53E19081
P 6300 4300
F 0 "#PWR?" H 6300 4300 30  0001 C CNN
F 1 "GND" H 6300 4230 30  0001 C CNN
F 2 "" H 6300 4300 60  0000 C CNN
F 3 "" H 6300 4300 60  0000 C CNN
	1    6300 4300
	0    1    1    0   
$EndComp
$Comp
L AT28C64B U?
U 1 1 53E195CB
P 7100 3350
F 0 "U?" H 7100 3250 60  0000 C CNN
F 1 "AT28C64B" H 7100 3350 60  0000 C CNN
F 2 "~" H 7100 3250 60  0000 C CNN
F 3 "~" H 7100 3250 60  0000 C CNN
	1    7100 3350
	1    0    0    -1  
$EndComp
$Comp
L +5V #PWR?
U 1 1 53E1977D
P 8150 800
F 0 "#PWR?" H 8150 890 20  0001 C CNN
F 1 "+5V" H 8150 890 30  0000 C CNN
F 2 "" H 8150 800 60  0000 C CNN
F 3 "" H 8150 800 60  0000 C CNN
	1    8150 800 
	1    0    0    -1  
$EndComp
NoConn ~ 6300 1150
$Comp
L GND #PWR?
U 1 1 53E19788
P 6300 2450
F 0 "#PWR?" H 6300 2450 30  0001 C CNN
F 1 "GND" H 6300 2380 30  0001 C CNN
F 2 "" H 6300 2450 60  0000 C CNN
F 3 "" H 6300 2450 60  0000 C CNN
	1    6300 2450
	0    1    1    0   
$EndComp
Text Label 8250 1950 0    60   ~ 0
~CS~ RAM
Text Label 8250 1250 0    60   ~ 0
~RW
$Comp
L GND #PWR?
U 1 1 53E24A6F
P 8000 1750
F 0 "#PWR?" H 8000 1750 30  0001 C CNN
F 1 "GND" H 8000 1680 30  0001 C CNN
F 2 "" H 8000 1750 60  0000 C CNN
F 3 "" H 8000 1750 60  0000 C CNN
	1    8000 1750
	0    -1   -1   0   
$EndComp
Entry Wire Line
	13100 8450 13200 8550
Entry Wire Line
	13100 8550 13200 8650
Entry Wire Line
	13100 8650 13200 8750
Entry Wire Line
	13100 8750 13200 8850
Entry Wire Line
	13100 8850 13200 8950
Entry Wire Line
	13100 8950 13200 9050
Entry Wire Line
	13100 9050 13200 9150
Entry Wire Line
	13100 9150 13200 9250
Text GLabel 13450 8450 2    60   Input ~ 0
Data Bus
Entry Wire Line
	13300 8250 13400 8350
Entry Wire Line
	13300 8150 13400 8250
Entry Wire Line
	13300 8050 13400 8150
Entry Wire Line
	13300 7950 13400 8050
Text GLabel 13600 7950 2    60   Input ~ 0
Address Bus
Text Label 13100 8350 0    60   ~ 0
~RST
Text Label 13100 7950 0    60   ~ 0
A0
Text Label 13100 8050 0    60   ~ 0
A1
Text Label 13100 8150 0    60   ~ 0
A2
Text Label 13100 8250 0    60   ~ 0
A3
Text Label 13300 9450 0    60   ~ 0
~CS~ VIA1
$Comp
L GND #PWR?
U 1 1 53E2609C
P 11700 7750
F 0 "#PWR?" H 11700 7750 30  0001 C CNN
F 1 "GND" H 11700 7680 30  0001 C CNN
F 2 "" H 11700 7750 60  0000 C CNN
F 3 "" H 11700 7750 60  0000 C CNN
	1    11700 7750
	0    1    1    0   
$EndComp
Text Label 13300 9250 0    60   ~ 0
PHI2
Text Label 13300 9350 0    60   ~ 0
A13
Text Label 13300 9550 0    60   ~ 0
~RW
Text Label 13300 9650 0    60   ~ 0
~IRQ
$Comp
L CONN_7X2 P?
U 1 1 53E2672A
P 10250 9150
F 0 "P?" H 10250 9550 60  0000 C CNN
F 1 "CONN_7X2" V 10250 9150 60  0000 C CNN
F 2 "" H 10250 9150 60  0000 C CNN
F 3 "" H 10250 9150 60  0000 C CNN
	1    10250 9150
	1    0    0    -1  
$EndComp
$Comp
L +5V #PWR?
U 1 1 53E26730
P 14800 9000
F 0 "#PWR?" H 14800 9090 20  0001 C CNN
F 1 "+5V" H 14800 9090 30  0000 C CNN
F 2 "" H 14800 9000 60  0000 C CNN
F 3 "" H 14800 9000 60  0000 C CNN
	1    14800 9000
	-1   0    0    1   
$EndComp
$Comp
L GND #PWR?
U 1 1 53E26736
P 14400 9000
F 0 "#PWR?" H 14400 9000 30  0001 C CNN
F 1 "GND" H 14400 8930 30  0001 C CNN
F 2 "" H 14400 9000 60  0000 C CNN
F 3 "" H 14400 9000 60  0000 C CNN
	1    14400 9000
	1    0    0    -1  
$EndComp
$Comp
L C C?
U 1 1 53E2673E
P 14600 8800
F 0 "C?" H 14600 8900 40  0000 L CNN
F 1 "0.1uF" H 14606 8715 40  0000 L CNN
F 2 "~" H 14638 8650 30  0000 C CNN
F 3 "~" H 14600 8800 60  0000 C CNN
	1    14600 8800
	0    -1   -1   0   
$EndComp
Text Label 14800 8450 0    60   ~ 0
VIA PWR
Text Label 14700 8450 2    60   ~ 0
VIA GND
Text Label 10650 9450 0    60   ~ 0
VIA PWR
Text Label 9850 9450 2    60   ~ 0
VIA GND
Text Label 9850 8850 2    60   ~ 0
VIA GND
Text Label 10650 8850 0    60   ~ 0
VIA PWR
$Comp
L CONN_7X2 P?
U 1 1 53E279F6
P 10250 8100
F 0 "P?" H 10250 8500 60  0000 C CNN
F 1 "CONN_7X2" V 10250 8100 60  0000 C CNN
F 2 "" H 10250 8100 60  0000 C CNN
F 3 "" H 10250 8100 60  0000 C CNN
	1    10250 8100
	1    0    0    -1  
$EndComp
Text Label 10650 8400 0    60   ~ 0
VIA PWR
Text Label 9850 8400 2    60   ~ 0
VIA GND
Text Label 9850 7800 2    60   ~ 0
VIA GND
Text Label 10650 7800 0    60   ~ 0
VIA PWR
Text Label 6300 1250 2    60   ~ 0
A12
Text Label 6300 1350 2    60   ~ 0
A7
Text Label 6300 1450 2    60   ~ 0
A6
Text Label 6300 1550 2    60   ~ 0
A5
Text Label 6300 1650 2    60   ~ 0
A4
Text Label 6300 1750 2    60   ~ 0
A3
Text Label 6300 1850 2    60   ~ 0
A2
Text Label 6300 1950 2    60   ~ 0
A1
Text Label 6300 2050 2    60   ~ 0
A0
Text Label 8000 1450 0    60   ~ 0
A8
Text Label 8000 1550 0    60   ~ 0
A9
Text Label 8000 1650 0    60   ~ 0
A11
Text Label 8000 1850 0    60   ~ 0
A10
Text Label 6300 2150 2    60   ~ 0
D0
Text Label 6300 2250 2    60   ~ 0
D1
Text Label 6300 2350 2    60   ~ 0
D2
Text Label 8000 2450 0    60   ~ 0
D3
Text Label 8000 2350 0    60   ~ 0
D4
Text Label 8000 2250 0    60   ~ 0
D5
Text Label 8000 2150 0    60   ~ 0
D6
Text Label 8000 2050 0    60   ~ 0
D7
Text Label 6300 3100 2    60   ~ 0
A12
Text Label 6300 3200 2    60   ~ 0
A7
Text Label 6300 3300 2    60   ~ 0
A6
Text Label 6300 3400 2    60   ~ 0
A5
Text Label 6300 3500 2    60   ~ 0
A4
Text Label 6300 3600 2    60   ~ 0
A3
Text Label 6300 3700 2    60   ~ 0
A2
Text Label 6300 3800 2    60   ~ 0
A1
Text Label 6300 3900 2    60   ~ 0
A0
Text Label 6300 4000 2    60   ~ 0
D0
Text Label 6300 4100 2    60   ~ 0
D1
Text Label 6300 4200 2    60   ~ 0
D2
Text Label 8000 4300 0    60   ~ 0
D3
Text Label 8000 4200 0    60   ~ 0
D4
Text Label 8000 4100 0    60   ~ 0
D5
Text Label 8000 4000 0    60   ~ 0
D6
Text Label 8000 3900 0    60   ~ 0
D7
Text Label 8000 3700 0    60   ~ 0
A10
Text Label 8000 3500 0    60   ~ 0
A11
Text Label 8000 3400 0    60   ~ 0
A9
Text Label 8000 3300 0    60   ~ 0
A8
Text Label 8000 1350 0    60   ~ 0
A15
Text Label 8000 3200 0    60   ~ 0
A15
Text Label 11700 7850 2    60   ~ 0
VIA_PA0
Text Label 11700 7950 2    60   ~ 0
VIA_PA1
Text Label 11700 8050 2    60   ~ 0
VIA_PA2
Text Label 11700 8150 2    60   ~ 0
VIA_PA3
Text Label 11700 8250 2    60   ~ 0
VIA_PA4
Text Label 11700 8350 2    60   ~ 0
VIA_PA5
Text Label 11700 8450 2    60   ~ 0
VIA_PA6
Text Label 11700 8550 2    60   ~ 0
VIA_PA7
Text Label 11700 8650 2    60   ~ 0
VIA_PB0
Text Label 11700 8750 2    60   ~ 0
VIA_PB1
Text Label 11700 8850 2    60   ~ 0
VIA_PB2
Text Label 11700 8950 2    60   ~ 0
VIA_PB3
Text Label 11700 9050 2    60   ~ 0
VIA_PB4
Text Label 11700 9150 2    60   ~ 0
VIA_PB5
Text Label 11700 9250 2    60   ~ 0
VIA_PB6
Text Label 11700 9350 2    60   ~ 0
VIA_PB7
Text Label 11700 9450 2    60   ~ 0
VIA_CB1
Text Label 11700 9550 2    60   ~ 0
VIA_CB2
Text Label 13100 7750 0    60   ~ 0
VIA_CA1
Text Label 13100 7850 0    60   ~ 0
VIA_CA2
Text Label 9850 8000 2    60   ~ 0
VIA_PA0
Text Label 9850 8100 2    60   ~ 0
VIA_PA1
Text Label 9850 8200 2    60   ~ 0
VIA_PA2
Text Label 9850 8300 2    60   ~ 0
VIA_PA3
Text Label 10650 8300 0    60   ~ 0
VIA_PA4
Text Label 10650 8200 0    60   ~ 0
VIA_PA5
Text Label 10650 8100 0    60   ~ 0
VIA_PA6
Text Label 10650 8000 0    60   ~ 0
VIA_PA7
Text Label 9850 7900 2    60   ~ 0
VIA_CA1
Text Label 10650 7900 0    60   ~ 0
VIA_CA2
Text Label 13100 8450 0    60   ~ 0
D0
Text Label 13100 8550 0    60   ~ 0
D1
Text Label 13100 8650 0    60   ~ 0
D2
Text Label 13100 8750 0    60   ~ 0
D3
Text Label 13100 8850 0    60   ~ 0
D4
Text Label 13100 8950 0    60   ~ 0
D5
Text Label 13100 9050 0    60   ~ 0
D6
Text Label 13100 9150 0    60   ~ 0
D7
Text Label 9850 9050 2    60   ~ 0
VIA_PB0
Text Label 9850 9150 2    60   ~ 0
VIA_PB1
Text Label 9850 9250 2    60   ~ 0
VIA_PB2
Text Label 9850 9350 2    60   ~ 0
VIA_PB3
Text Label 10650 9350 0    60   ~ 0
VIA_PB4
Text Label 10650 9250 0    60   ~ 0
VIA_PB5
Text Label 10650 9150 0    60   ~ 0
VIA_PB6
Text Label 10650 9050 0    60   ~ 0
VIA_PB7
Text Label 9850 8950 2    60   ~ 0
VIA_CB1
Text Label 10650 8950 0    60   ~ 0
VIA_CB2
$Comp
L GND #PWR?
U 1 1 53E2DE73
P 5300 9250
F 0 "#PWR?" H 5300 9250 30  0001 C CNN
F 1 "GND" H 5300 9180 30  0001 C CNN
F 2 "" H 5300 9250 60  0000 C CNN
F 3 "" H 5300 9250 60  0000 C CNN
	1    5300 9250
	0    1    1    0   
$EndComp
Text Label 6850 10250 0    60   ~ 0
D0
Text Label 6850 10150 0    60   ~ 0
D1
Text Label 6850 10050 0    60   ~ 0
D2
Text Label 6850 9950 0    60   ~ 0
D3
Text Label 6850 9850 0    60   ~ 0
D4
Text Label 6850 9750 0    60   ~ 0
D5
Text Label 6850 9650 0    60   ~ 0
D6
Text Label 6850 9550 0    60   ~ 0
D7
Text Label 5300 9450 2    60   ~ 0
~CS~ ACIA1
Text Label 5300 9350 2    60   ~ 0
A11
Text Label 6850 9350 0    60   ~ 0
PHI2
Text Label 6850 9450 0    60   ~ 0
~IRQ
Text Label 6850 9250 0    60   ~ 0
~RW
Text Label 5300 9550 2    60   ~ 0
~RST
$Comp
L C C?
U 1 1 53E2E179
P 8350 950
F 0 "C?" H 8350 1050 40  0000 L CNN
F 1 ".01uF" H 8356 865 40  0000 L CNN
F 2 "~" H 8388 800 30  0000 C CNN
F 3 "~" H 8350 950 60  0000 C CNN
	1    8350 950 
	0    1    1    0   
$EndComp
$Comp
L GND #PWR?
U 1 1 53E2E186
P 8550 750
F 0 "#PWR?" H 8550 750 30  0001 C CNN
F 1 "GND" H 8550 680 30  0001 C CNN
F 2 "" H 8550 750 60  0000 C CNN
F 3 "" H 8550 750 60  0000 C CNN
	1    8550 750 
	-1   0    0    1   
$EndComp
$Comp
L +5V #PWR?
U 1 1 53E2E3C6
P 3000 2200
F 0 "#PWR?" H 3000 2290 20  0001 C CNN
F 1 "+5V" H 3000 2290 30  0000 C CNN
F 2 "" H 3000 2200 60  0000 C CNN
F 3 "" H 3000 2200 60  0000 C CNN
	1    3000 2200
	-1   0    0    1   
$EndComp
$Comp
L C C?
U 1 1 53E2E3CD
P 2800 2050
F 0 "C?" H 2800 2150 40  0000 L CNN
F 1 ".01uF" H 2806 1965 40  0000 L CNN
F 2 "~" H 2838 1900 30  0000 C CNN
F 3 "~" H 2800 2050 60  0000 C CNN
	1    2800 2050
	0    -1   -1   0   
$EndComp
$Comp
L GND #PWR?
U 1 1 53E2E3D3
P 2600 2250
F 0 "#PWR?" H 2600 2250 30  0001 C CNN
F 1 "GND" H 2600 2180 30  0001 C CNN
F 2 "" H 2600 2250 60  0000 C CNN
F 3 "" H 2600 2250 60  0000 C CNN
	1    2600 2250
	1    0    0    -1  
$EndComp
$Comp
L +5V #PWR?
U 1 1 53E2E4BC
P 8150 2650
F 0 "#PWR?" H 8150 2740 20  0001 C CNN
F 1 "+5V" H 8150 2740 30  0000 C CNN
F 2 "" H 8150 2650 60  0000 C CNN
F 3 "" H 8150 2650 60  0000 C CNN
	1    8150 2650
	1    0    0    -1  
$EndComp
$Comp
L C C?
U 1 1 53E2E4C3
P 8350 2800
F 0 "C?" H 8350 2900 40  0000 L CNN
F 1 ".01uF" H 8356 2715 40  0000 L CNN
F 2 "~" H 8388 2650 30  0000 C CNN
F 3 "~" H 8350 2800 60  0000 C CNN
	1    8350 2800
	0    1    1    0   
$EndComp
$Comp
L GND #PWR?
U 1 1 53E2E4C9
P 8550 2600
F 0 "#PWR?" H 8550 2600 30  0001 C CNN
F 1 "GND" H 8550 2530 30  0001 C CNN
F 2 "" H 8550 2600 60  0000 C CNN
F 3 "" H 8550 2600 60  0000 C CNN
	1    8550 2600
	-1   0    0    1   
$EndComp
$Comp
L +5V #PWR?
U 1 1 53E2E4D1
P 7000 10900
F 0 "#PWR?" H 7000 10990 20  0001 C CNN
F 1 "+5V" H 7000 10990 30  0000 C CNN
F 2 "" H 7000 10900 60  0000 C CNN
F 3 "" H 7000 10900 60  0000 C CNN
	1    7000 10900
	1    0    0    1   
$EndComp
$Comp
L C C?
U 1 1 53E2E4D8
P 7200 10750
F 0 "C?" H 7200 10850 40  0000 L CNN
F 1 ".01uF" H 7206 10665 40  0000 L CNN
F 2 "~" H 7238 10600 30  0000 C CNN
F 3 "~" H 7200 10750 60  0000 C CNN
	1    7200 10750
	0    1    -1   0   
$EndComp
$Comp
L GND #PWR?
U 1 1 53E2E4DE
P 7400 10950
F 0 "#PWR?" H 7400 10950 30  0001 C CNN
F 1 "GND" H 7400 10880 30  0001 C CNN
F 2 "" H 7400 10950 60  0000 C CNN
F 3 "" H 7400 10950 60  0000 C CNN
	1    7400 10950
	-1   0    0    -1  
$EndComp
$Comp
L +5V #PWR?
U 1 1 53E2E4E6
P 10600 10000
F 0 "#PWR?" H 10600 10090 20  0001 C CNN
F 1 "+5V" H 10600 10090 30  0000 C CNN
F 2 "" H 10600 10000 60  0000 C CNN
F 3 "" H 10600 10000 60  0000 C CNN
	1    10600 10000
	-1   0    0    1   
$EndComp
$Comp
L C C?
U 1 1 53E2E4ED
P 10400 9850
F 0 "C?" H 10400 9950 40  0000 L CNN
F 1 ".01uF" H 10406 9765 40  0000 L CNN
F 2 "~" H 10438 9700 30  0000 C CNN
F 3 "~" H 10400 9850 60  0000 C CNN
	1    10400 9850
	0    -1   -1   0   
$EndComp
$Comp
L GND #PWR?
U 1 1 53E2E4F3
P 10200 10050
F 0 "#PWR?" H 10200 10050 30  0001 C CNN
F 1 "GND" H 10200 9980 30  0001 C CNN
F 2 "" H 10200 10050 60  0000 C CNN
F 3 "" H 10200 10050 60  0000 C CNN
	1    10200 10050
	1    0    0    -1  
$EndComp
Text Label 5300 10450 2    60   ~ 0
A0
Text Label 5300 10550 2    60   ~ 0
A1
$Comp
L GND #PWR?
U 1 1 53E59249
P 2100 9400
F 0 "#PWR?" H 2100 9400 30  0001 C CNN
F 1 "GND" H 2100 9330 30  0001 C CNN
F 2 "" H 2100 9400 60  0000 C CNN
F 3 "" H 2100 9400 60  0000 C CNN
	1    2100 9400
	0    1    1    0   
$EndComp
$Comp
L +5V #PWR?
U 1 1 53E5924F
P 2150 8850
F 0 "#PWR?" H 2150 8940 20  0001 C CNN
F 1 "+5V" H 2150 8940 30  0000 C CNN
F 2 "" H 2150 8850 60  0000 C CNN
F 3 "" H 2150 8850 60  0000 C CNN
	1    2150 8850
	0    -1   -1   0   
$EndComp
$Comp
L CP1 C?
U 1 1 53E597FA
P 4500 9050
F 0 "C?" H 4550 9150 50  0000 L CNN
F 1 "1uF" H 4550 8950 50  0000 L CNN
F 2 "~" H 4500 9050 60  0000 C CNN
F 3 "~" H 4500 9050 60  0000 C CNN
	1    4500 9050
	-1   0    0    -1  
$EndComp
$Comp
L CP1 C?
U 1 1 53E59811
P 4500 9550
F 0 "C?" H 4550 9650 50  0000 L CNN
F 1 "1uF" H 4550 9450 50  0000 L CNN
F 2 "~" H 4500 9550 60  0000 C CNN
F 3 "~" H 4500 9550 60  0000 C CNN
	1    4500 9550
	-1   0    0    -1  
$EndComp
$Comp
L CP1 C?
U 1 1 53E59B58
P 2350 9050
F 0 "C?" H 2400 9150 50  0000 L CNN
F 1 "1uF" H 2400 8950 50  0000 L CNN
F 2 "~" H 2350 9050 60  0000 C CNN
F 3 "~" H 2350 9050 60  0000 C CNN
	1    2350 9050
	1    0    0    1   
$EndComp
$Comp
L CP1 C?
U 1 1 53E59D5D
P 2350 9600
F 0 "C?" H 2400 9700 50  0000 L CNN
F 1 "1uF" H 2400 9500 50  0000 L CNN
F 2 "~" H 2350 9600 60  0000 C CNN
F 3 "~" H 2350 9600 60  0000 C CNN
	1    2350 9600
	-1   0    0    -1  
$EndComp
$Comp
L MAX232 U?
U 1 1 53E598B7
P 3400 9550
F 0 "U?" H 3400 10400 70  0000 C CNN
F 1 "MAX232" H 3400 8700 70  0000 C CNN
F 2 "" H 3400 9550 60  0000 C CNN
F 3 "" H 3400 9550 60  0000 C CNN
	1    3400 9550
	-1   0    0    -1  
$EndComp
$Comp
L DB9 J?
U 1 1 53E69AEF
P 1100 9950
F 0 "J?" H 1100 10500 70  0000 C CNN
F 1 "DB9" H 1100 9400 70  0000 C CNN
F 2 "" H 1100 9950 60  0000 C CNN
F 3 "" H 1100 9950 60  0000 C CNN
	1    1100 9950
	-1   0    0    -1  
$EndComp
$Comp
L GND #PWR?
U 1 1 53E69AFC
P 1550 10350
F 0 "#PWR?" H 1550 10350 30  0001 C CNN
F 1 "GND" H 1550 10280 30  0001 C CNN
F 2 "" H 1550 10350 60  0000 C CNN
F 3 "" H 1550 10350 60  0000 C CNN
	1    1550 10350
	0    -1   -1   0   
$EndComp
Text Label 1550 10050 0    60   ~ 0
DB9_RTS
Text Label 1550 9950 0    60   ~ 0
DB9_Tx
Text Label 1550 9850 0    60   ~ 0
DB9_CTS
Text Label 1550 10150 0    60   ~ 0
DB9_Rx
$Comp
L CRYSTAL X?
U 1 1 53FCCF13
P 6050 8650
F 0 "X?" H 6050 8800 60  0000 C CNN
F 1 "1.8432Mhz" H 6050 8500 60  0000 C CNN
F 2 "~" H 6050 8650 60  0000 C CNN
F 3 "~" H 6050 8650 60  0000 C CNN
	1    6050 8650
	-1   0    0    1   
$EndComp
NoConn ~ 5300 10250
$Comp
L GND #PWR?
U 1 1 53FCF316
P 6850 10450
F 0 "#PWR?" H 6850 10450 30  0001 C CNN
F 1 "GND" H 6850 10380 30  0001 C CNN
F 2 "" H 6850 10450 60  0000 C CNN
F 3 "" H 6850 10450 60  0000 C CNN
	1    6850 10450
	0    -1   1    0   
$EndComp
NoConn ~ 6850 10350
$Sheet
S 750  8200 6850 2950
U 53FCFA97
F0 "ACIA Setup" 50
F1 "ACIA_Setup.sch" 50
$EndSheet
$Sheet
S 9300 7500 6100 2750
U 53FCFA99
F0 "VIA Setup" 50
F1 "VIA_Setup.sch" 50
$EndSheet
$Comp
L W65C22 U?
U 1 1 53FCFAA2
P 12400 5350
F 0 "U?" H 12400 5350 60  0000 C CNN
F 1 "W65C22" H 12400 5500 60  0000 C CNN
F 2 "" H 12400 5350 60  0000 C CNN
F 3 "" H 12400 5350 60  0000 C CNN
	1    12400 5350
	1    0    0    -1  
$EndComp
Entry Wire Line
	13100 5350 13200 5450
Entry Wire Line
	13100 5450 13200 5550
Entry Wire Line
	13100 5550 13200 5650
Entry Wire Line
	13100 5650 13200 5750
Entry Wire Line
	13100 5750 13200 5850
Entry Wire Line
	13100 5850 13200 5950
Entry Wire Line
	13100 5950 13200 6050
Entry Wire Line
	13100 6050 13200 6150
Text GLabel 13450 5350 2    60   Input ~ 0
Data Bus
Entry Wire Line
	13300 5150 13400 5250
Entry Wire Line
	13300 5050 13400 5150
Entry Wire Line
	13300 4950 13400 5050
Entry Wire Line
	13300 4850 13400 4950
Text GLabel 13600 4850 2    60   Input ~ 0
Address Bus
Text Label 13100 5250 0    60   ~ 0
~RST
Text Label 13100 4850 0    60   ~ 0
A0
Text Label 13100 4950 0    60   ~ 0
A1
Text Label 13100 5050 0    60   ~ 0
A2
Text Label 13100 5150 0    60   ~ 0
A3
Text Label 13300 6350 0    60   ~ 0
~CS~ VIA2
$Comp
L GND #PWR?
U 1 1 53FCFABC
P 11700 4650
F 0 "#PWR?" H 11700 4650 30  0001 C CNN
F 1 "GND" H 11700 4580 30  0001 C CNN
F 2 "" H 11700 4650 60  0000 C CNN
F 3 "" H 11700 4650 60  0000 C CNN
	1    11700 4650
	0    1    1    0   
$EndComp
Text Label 13300 6150 0    60   ~ 0
PHI2
Text Label 13300 6250 0    60   ~ 0
A12
Text Label 13300 6450 0    60   ~ 0
~RW
Text Label 13300 6550 0    60   ~ 0
~IRQ
$Comp
L CONN_7X2 P?
U 1 1 53FCFAC6
P 10250 6050
F 0 "P?" H 10250 6450 60  0000 C CNN
F 1 "CONN_7X2" V 10250 6050 60  0000 C CNN
F 2 "" H 10250 6050 60  0000 C CNN
F 3 "" H 10250 6050 60  0000 C CNN
	1    10250 6050
	1    0    0    -1  
$EndComp
Text Label 10650 6350 0    60   ~ 0
VIA PWR
Text Label 9850 6350 2    60   ~ 0
VIA GND
Text Label 9850 5750 2    60   ~ 0
VIA GND
Text Label 10650 5750 0    60   ~ 0
VIA PWR
$Comp
L CONN_7X2 P?
U 1 1 53FCFAE4
P 10250 5000
F 0 "P?" H 10250 5400 60  0000 C CNN
F 1 "CONN_7X2" V 10250 5000 60  0000 C CNN
F 2 "" H 10250 5000 60  0000 C CNN
F 3 "" H 10250 5000 60  0000 C CNN
	1    10250 5000
	1    0    0    -1  
$EndComp
Text Label 10650 5300 0    60   ~ 0
VIA PWR
Text Label 9850 5300 2    60   ~ 0
VIA GND
Text Label 9850 4700 2    60   ~ 0
VIA GND
Text Label 10650 4700 0    60   ~ 0
VIA PWR
Text Label 11700 4750 2    60   ~ 0
VIA2_PA0
Text Label 11700 4850 2    60   ~ 0
VIA2_PA1
Text Label 11700 4950 2    60   ~ 0
VIA2_PA2
Text Label 11700 5050 2    60   ~ 0
VIA2_PA3
Text Label 11700 5150 2    60   ~ 0
VIA2_PA4
Text Label 11700 5250 2    60   ~ 0
VIA2_PA5
Text Label 11700 5350 2    60   ~ 0
VIA2_PA6
Text Label 11700 5450 2    60   ~ 0
VIA2_PA7
Text Label 11700 5550 2    60   ~ 0
VIA2_PB0
Text Label 11700 5650 2    60   ~ 0
VIA2_PB1
Text Label 11700 5750 2    60   ~ 0
VIA2_PB2
Text Label 11700 5850 2    60   ~ 0
VIA2_PB3
Text Label 11700 5950 2    60   ~ 0
VIA2_PB4
Text Label 11700 6050 2    60   ~ 0
VIA2_PB5
Text Label 11700 6150 2    60   ~ 0
VIA2_PB6
Text Label 11700 6250 2    60   ~ 0
VIA2_PB7
Text Label 11700 6350 2    60   ~ 0
VIA2_CB1
Text Label 11700 6450 2    60   ~ 0
VIA2_CB2
Text Label 13100 4650 0    60   ~ 0
VIA2_CA1
Text Label 13100 4750 0    60   ~ 0
VIA2_CA2
Text Label 9850 4900 2    60   ~ 0
VIA2_PA0
Text Label 9850 5000 2    60   ~ 0
VIA2_PA1
Text Label 9850 5100 2    60   ~ 0
VIA2_PA2
Text Label 9850 5200 2    60   ~ 0
VIA2_PA3
Text Label 10650 5200 0    60   ~ 0
VIA2_PA4
Text Label 10650 5100 0    60   ~ 0
VIA2_PA5
Text Label 10650 5000 0    60   ~ 0
VIA2_PA6
Text Label 10650 4900 0    60   ~ 0
VIA2_PA7
Text Label 9850 4800 2    60   ~ 0
VIA2_CA1
Text Label 10650 4800 0    60   ~ 0
VIA2_CA2
Text Label 13100 5350 0    60   ~ 0
D0
Text Label 13100 5450 0    60   ~ 0
D1
Text Label 13100 5550 0    60   ~ 0
D2
Text Label 13100 5650 0    60   ~ 0
D3
Text Label 13100 5750 0    60   ~ 0
D4
Text Label 13100 5850 0    60   ~ 0
D5
Text Label 13100 5950 0    60   ~ 0
D6
Text Label 13100 6050 0    60   ~ 0
D7
Text Label 9850 5950 2    60   ~ 0
VIA2_PB0
Text Label 9850 6050 2    60   ~ 0
VIA2_PB1
Text Label 9850 6150 2    60   ~ 0
VIA2_PB2
Text Label 9850 6250 2    60   ~ 0
VIA2_PB3
Text Label 10650 6250 0    60   ~ 0
VIA2_PB4
Text Label 10650 6150 0    60   ~ 0
VIA2_PB5
Text Label 10650 6050 0    60   ~ 0
VIA2_PB6
Text Label 10650 5950 0    60   ~ 0
VIA2_PB7
Text Label 9850 5850 2    60   ~ 0
VIA2_CB1
Text Label 10650 5850 0    60   ~ 0
VIA2_CB2
$Comp
L +5V #PWR?
U 1 1 53FCFB1E
P 10600 6900
F 0 "#PWR?" H 10600 6990 20  0001 C CNN
F 1 "+5V" H 10600 6990 30  0000 C CNN
F 2 "" H 10600 6900 60  0000 C CNN
F 3 "" H 10600 6900 60  0000 C CNN
	1    10600 6900
	-1   0    0    1   
$EndComp
$Comp
L C C?
U 1 1 53FCFB24
P 10400 6750
F 0 "C?" H 10400 6850 40  0000 L CNN
F 1 ".01uF" H 10406 6665 40  0000 L CNN
F 2 "~" H 10438 6600 30  0000 C CNN
F 3 "~" H 10400 6750 60  0000 C CNN
	1    10400 6750
	0    -1   -1   0   
$EndComp
$Comp
L GND #PWR?
U 1 1 53FCFB2A
P 10200 6950
F 0 "#PWR?" H 10200 6950 30  0001 C CNN
F 1 "GND" H 10200 6880 30  0001 C CNN
F 2 "" H 10200 6950 60  0000 C CNN
F 3 "" H 10200 6950 60  0000 C CNN
	1    10200 6950
	1    0    0    -1  
$EndComp
$Sheet
S 9400 4500 5950 2700
U 53FCFC8B
F0 "VIA2 Setup" 50
F1 "VIA2_Setup.sch" 50
$EndSheet
$Comp
L W65C51S U?
U 1 1 53FD02E0
P 4700 6300
F 0 "U?" H 4700 6300 60  0000 C CNN
F 1 "W65C51S" H 4700 6400 60  0000 C CNN
F 2 "" H 4700 6300 60  0000 C CNN
F 3 "" H 4700 6300 60  0000 C CNN
	1    4700 6300
	1    0    0    -1  
$EndComp
$Comp
L GND #PWR?
U 1 1 53FD02E6
P 3900 5850
F 0 "#PWR?" H 3900 5850 30  0001 C CNN
F 1 "GND" H 3900 5780 30  0001 C CNN
F 2 "" H 3900 5850 60  0000 C CNN
F 3 "" H 3900 5850 60  0000 C CNN
	1    3900 5850
	0    1    1    0   
$EndComp
Text Label 5450 6850 0    60   ~ 0
D0
Text Label 5450 6750 0    60   ~ 0
D1
Text Label 5450 6650 0    60   ~ 0
D2
Text Label 5450 6550 0    60   ~ 0
D3
Text Label 5450 6450 0    60   ~ 0
D4
Text Label 5450 6350 0    60   ~ 0
D5
Text Label 5450 6250 0    60   ~ 0
D6
Text Label 5450 6150 0    60   ~ 0
D7
Text Label 3900 6050 2    60   ~ 0
~CS~ ACIA2
Text Label 3900 5950 2    60   ~ 0
A10
Text Label 5450 5950 0    60   ~ 0
PHI2
Text Label 5450 6050 0    60   ~ 0
~IRQ
Text Label 5450 5850 0    60   ~ 0
~RW
Text Label 3900 6150 2    60   ~ 0
~RST
$Comp
L +5V #PWR?
U 1 1 53FD02FA
P 5600 7500
F 0 "#PWR?" H 5600 7590 20  0001 C CNN
F 1 "+5V" H 5600 7590 30  0000 C CNN
F 2 "" H 5600 7500 60  0000 C CNN
F 3 "" H 5600 7500 60  0000 C CNN
	1    5600 7500
	1    0    0    1   
$EndComp
$Comp
L C C?
U 1 1 53FD0300
P 5800 7350
F 0 "C?" H 5800 7450 40  0000 L CNN
F 1 ".01uF" H 5806 7265 40  0000 L CNN
F 2 "~" H 5838 7200 30  0000 C CNN
F 3 "~" H 5800 7350 60  0000 C CNN
	1    5800 7350
	0    1    -1   0   
$EndComp
$Comp
L GND #PWR?
U 1 1 53FD0306
P 6000 7550
F 0 "#PWR?" H 6000 7550 30  0001 C CNN
F 1 "GND" H 6000 7480 30  0001 C CNN
F 2 "" H 6000 7550 60  0000 C CNN
F 3 "" H 6000 7550 60  0000 C CNN
	1    6000 7550
	-1   0    0    -1  
$EndComp
Text Label 3900 7050 2    60   ~ 0
A0
Text Label 3900 7150 2    60   ~ 0
A1
$Comp
L GND #PWR?
U 1 1 53FD0377
P 5450 7050
F 0 "#PWR?" H 5450 7050 30  0001 C CNN
F 1 "GND" H 5450 6980 30  0001 C CNN
F 2 "" H 5450 7050 60  0000 C CNN
F 3 "" H 5450 7050 60  0000 C CNN
	1    5450 7050
	0    -1   1    0   
$EndComp
Text Label 5300 9750 2    60   ~ 0
XTLI
Text Label 5300 9850 2    60   ~ 0
XLTO
Text Label 3900 6350 2    60   ~ 0
XTLI
Text Label 3900 6450 2    60   ~ 0
XLTO
NoConn ~ 3900 6850
NoConn ~ 5450 6950
$Comp
L CONN_5 P?
U 1 1 53FD095D
P 1900 6650
F 0 "P?" V 1850 6650 50  0000 C CNN
F 1 "CONN_5" V 1950 6650 50  0000 C CNN
F 2 "" H 1900 6650 60  0000 C CNN
F 3 "" H 1900 6650 60  0000 C CNN
	1    1900 6650
	-1   0    0    1   
$EndComp
Connection ~ 14400 8800
Wire Wire Line
	14700 8600 14700 8450
Wire Wire Line
	14400 8600 14700 8600
Connection ~ 14800 8800
Wire Wire Line
	14400 8600 14400 9000
Wire Wire Line
	14800 8450 14800 9000
Wire Bus Line
	5650 1150 5650 2450
Wire Wire Line
	5550 1850 5000 1850
Wire Wire Line
	5000 1950 5550 1950
Wire Wire Line
	5550 2050 5000 2050
Wire Wire Line
	5000 2150 5550 2150
Wire Wire Line
	5550 2250 5000 2250
Wire Wire Line
	5000 2350 5550 2350
Wire Wire Line
	5550 2450 5000 2450
Wire Wire Line
	5000 2550 5550 2550
Wire Bus Line
	3250 2050 3250 3250
Wire Bus Line
	3250 3250 5600 3250
Wire Bus Line
	5600 3250 5600 2550
Wire Wire Line
	5500 2650 5000 2650
Wire Wire Line
	5000 2750 5500 2750
Wire Wire Line
	5500 2850 5000 2850
Wire Wire Line
	5000 2950 5500 2950
Wire Wire Line
	5000 1450 5200 1450
Wire Wire Line
	11850 1200 11650 1200
Wire Wire Line
	11650 1200 11650 1100
Wire Wire Line
	10800 1100 11850 1100
Connection ~ 11650 1100
Wire Wire Line
	13300 1350 14100 1350
Wire Wire Line
	13300 1450 14100 1450
Wire Wire Line
	11600 1450 11850 1450
Wire Wire Line
	11850 1350 11600 1350
Wire Wire Line
	10800 1600 11850 1600
Wire Wire Line
	11850 1700 11600 1700
Wire Wire Line
	13300 1550 13450 1550
Wire Wire Line
	13450 1550 13450 3350
Wire Wire Line
	13450 3350 13800 3350
Wire Wire Line
	13800 3100 13450 3100
Connection ~ 13450 3100
Wire Wire Line
	13800 2850 13450 2850
Connection ~ 13450 2850
Wire Wire Line
	13800 2600 13450 2600
Connection ~ 13450 2600
Wire Wire Line
	13800 2500 13650 2500
Wire Wire Line
	13800 2750 13650 2750
Wire Wire Line
	13800 3000 13650 3000
Wire Wire Line
	13800 3250 13650 3250
Wire Wire Line
	11600 1850 11850 1850
Wire Wire Line
	11850 2100 13450 2100
Wire Wire Line
	11850 2100 11850 1950
Connection ~ 13450 2100
Wire Wire Line
	13300 1650 14100 1650
Wire Wire Line
	850  2450 850  3050
Wire Wire Line
	1450 2850 1550 2850
Wire Wire Line
	5000 1150 5200 1150
Wire Wire Line
	3000 1850 3350 1850
Wire Wire Line
	3350 1350 3150 1350
Wire Wire Line
	5000 1550 5200 1550
Wire Wire Line
	3350 1450 2550 1450
Wire Wire Line
	2550 1650 3350 1650
Wire Wire Line
	2550 1350 2700 1350
Wire Wire Line
	2700 1100 2700 1750
Wire Wire Line
	2700 1750 2550 1750
Wire Wire Line
	1800 1050 1800 1300
Wire Wire Line
	2700 1100 1800 1100
Connection ~ 1800 1100
Connection ~ 2700 1350
Wire Wire Line
	2550 1550 2600 1550
Wire Wire Line
	2600 1550 2600 1200
Wire Wire Line
	2600 1200 1950 1200
Wire Wire Line
	1950 1200 1950 1800
Wire Wire Line
	1950 1800 1800 1800
Wire Wire Line
	1800 1800 1800 2000
Wire Wire Line
	5000 1750 5200 1750
Wire Wire Line
	8000 3600 8150 3600
Wire Wire Line
	8150 3600 8150 3800
Wire Wire Line
	8000 3800 8650 3800
Connection ~ 8150 3800
Wire Wire Line
	8000 3100 8200 3100
Wire Wire Line
	8000 1150 8150 1150
Wire Wire Line
	8000 1950 8250 1950
Wire Wire Line
	8000 1250 8250 1250
Wire Bus Line
	13200 8450 13200 9250
Wire Bus Line
	13200 8450 13450 8450
Wire Bus Line
	13400 7950 13400 8350
Wire Bus Line
	13400 7950 13600 7950
Wire Wire Line
	13100 7950 13300 7950
Wire Wire Line
	13300 8050 13100 8050
Wire Wire Line
	13100 8150 13300 8150
Wire Wire Line
	13300 8250 13100 8250
Wire Wire Line
	13100 9350 13300 9350
Wire Wire Line
	13100 9450 13300 9450
Wire Wire Line
	13150 9300 13250 9300
Wire Wire Line
	13250 9300 13250 9250
Wire Wire Line
	13250 9250 13300 9250
Wire Wire Line
	13100 9250 13150 9250
Wire Wire Line
	13150 9250 13150 9300
Wire Wire Line
	13100 9550 13300 9550
Wire Wire Line
	13100 9650 13300 9650
Wire Wire Line
	8150 1150 8150 800 
Wire Wire Line
	8550 750  8550 950 
Wire Wire Line
	3000 1850 3000 2200
Wire Wire Line
	2600 2250 2600 2050
Wire Wire Line
	8000 3000 8150 3000
Wire Wire Line
	8150 3000 8150 2650
Wire Wire Line
	8550 2600 8550 2800
Wire Wire Line
	6850 10550 7000 10550
Wire Wire Line
	7000 10550 7000 10900
Wire Wire Line
	7400 10950 7400 10750
Wire Wire Line
	10600 9650 11700 9650
Wire Wire Line
	10600 9650 10600 10000
Wire Wire Line
	10200 10050 10200 9850
Wire Wire Line
	4500 8850 4200 8850
Wire Wire Line
	4200 9250 4500 9250
Wire Wire Line
	4500 9350 4200 9350
Wire Wire Line
	4200 9750 4500 9750
Wire Wire Line
	2150 8850 2600 8850
Connection ~ 2350 8850
Wire Wire Line
	2350 9250 2600 9250
Wire Wire Line
	2600 9400 2600 9450
Wire Wire Line
	2100 9400 2600 9400
Connection ~ 2350 9400
Wire Wire Line
	2350 9800 2600 9800
Wire Wire Line
	2600 9800 2600 9750
Wire Wire Line
	4200 9950 4750 9950
Wire Wire Line
	4750 9950 4750 10150
Wire Wire Line
	4750 10150 5300 10150
Wire Wire Line
	4200 10150 4650 10150
Wire Wire Line
	4650 10150 4650 10350
Wire Wire Line
	5300 9950 4950 9950
Wire Wire Line
	4950 9950 4950 10050
Wire Wire Line
	4950 10050 4200 10050
Wire Wire Line
	5300 10050 5050 10050
Wire Wire Line
	5050 10050 5050 10250
Wire Wire Line
	5050 10250 4200 10250
Wire Wire Line
	2600 9950 1550 9950
Wire Wire Line
	1550 10050 2600 10050
Wire Wire Line
	2600 10150 1550 10150
Wire Wire Line
	1550 9850 2050 9850
Wire Wire Line
	2050 9850 2050 10250
Wire Wire Line
	2050 10250 2600 10250
Wire Wire Line
	4650 10350 5300 10350
Wire Bus Line
	13200 5350 13200 6150
Wire Bus Line
	13200 5350 13450 5350
Wire Bus Line
	13400 4850 13400 5250
Wire Bus Line
	13400 4850 13600 4850
Wire Wire Line
	13100 4850 13300 4850
Wire Wire Line
	13300 4950 13100 4950
Wire Wire Line
	13100 5050 13300 5050
Wire Wire Line
	13300 5150 13100 5150
Wire Wire Line
	13100 6250 13300 6250
Wire Wire Line
	13100 6350 13300 6350
Wire Wire Line
	13150 6200 13250 6200
Wire Wire Line
	13250 6200 13250 6150
Wire Wire Line
	13250 6150 13300 6150
Wire Wire Line
	13100 6150 13150 6150
Wire Wire Line
	13150 6150 13150 6200
Wire Wire Line
	13100 6450 13300 6450
Wire Wire Line
	13100 6550 13300 6550
Wire Wire Line
	10600 6550 11700 6550
Wire Wire Line
	10600 6550 10600 6900
Wire Wire Line
	10200 6950 10200 6750
Wire Wire Line
	5450 7150 5600 7150
Wire Wire Line
	5600 7150 5600 7500
Wire Wire Line
	6000 7550 6000 7350
Wire Wire Line
	6350 8650 6500 8650
Wire Wire Line
	5750 8650 5600 8650
Wire Wire Line
	2700 6950 3900 6950
Wire Wire Line
	2700 6950 2700 6850
Wire Wire Line
	2700 6850 2300 6850
Wire Wire Line
	2300 6750 3900 6750
Wire Wire Line
	3900 6250 3600 6250
Wire Wire Line
	3600 6250 3600 6650
Wire Wire Line
	3600 6650 2300 6650
Wire Wire Line
	3900 6650 3700 6650
Wire Wire Line
	3700 6650 3700 6550
Wire Wire Line
	3700 6550 2300 6550
Text Label 2300 6450 0    60   ~ 0
GP_~RTS
Wire Wire Line
	3900 6550 3800 6550
Wire Wire Line
	3800 6550 3800 6450
Wire Wire Line
	3800 6450 2300 6450
Text Label 2300 6550 0    60   ~ 0
GP_~CTS
Text Label 2300 6650 0    60   ~ 0
GP_SCK
Text Label 2300 6750 0    60   ~ 0
GP_Tx
Text Label 2300 6850 0    60   ~ 0
GP_Rx
Text Label 5600 8650 0    60   ~ 0
XTLI
Text Label 6500 8650 0    60   ~ 0
XTLO
$Comp
L USB J?
U 1 1 53FD3768
P 1100 4050
F 0 "J?" H 1050 4450 60  0000 C CNN
F 1 "USB" V 850 4200 60  0000 C CNN
F 2 "" H 1100 4050 60  0000 C CNN
F 3 "" H 1100 4050 60  0000 C CNN
	1    1100 4050
	-1   0    0    -1  
$EndComp
$EndSCHEMATC
