EESchema Schematic File Version 2
LIBS:power
LIBS:device
LIBS:transistors
LIBS:conn
LIBS:linear
LIBS:regul
LIBS:74xx
LIBS:cmos4000
LIBS:adc-dac
LIBS:memory
LIBS:xilinx
LIBS:special
LIBS:microcontrollers
LIBS:dsp
LIBS:microchip
LIBS:analog_switches
LIBS:motorola
LIBS:texas
LIBS:intel
LIBS:audio
LIBS:interface
LIBS:digital-audio
LIBS:philips
LIBS:display
LIBS:cypress
LIBS:siliconi
LIBS:opto
LIBS:atmel
LIBS:contrib
LIBS:valves
LIBS:SBC_Library
LIBS:MCD68k-cache
EELAYER 25 0
EELAYER END
$Descr B 17000 11000
encoding utf-8
Sheet 1 1
Title "MCD Project"
Date "13 feb 2015"
Rev "2-11-2015"
Comp ""
Comment1 ""
Comment2 ""
Comment3 ""
Comment4 ""
$EndDescr
$Comp
L 68000D_PLCC U5
U 1 1 54C5B072
P 7150 4900
F 0 "U5" H 7150 5000 60  0000 C CNN
F 1 "68000D_PLCC" H 7150 4750 60  0000 C CNN
F 2 "Sockets:PLCC68" H 7150 4900 60  0000 C CNN
F 3 "~" H 7150 4900 60  0000 C CNN
	1    7150 4900
	1    0    0    -1  
$EndComp
Text Label 8150 2700 0    60   ~ 0
A1
Text Label 8150 2800 0    60   ~ 0
A2
Text Label 8150 2900 0    60   ~ 0
A3
Text Label 8150 3000 0    60   ~ 0
A4
Text Label 8150 3100 0    60   ~ 0
A5
Text Label 8150 3200 0    60   ~ 0
A6
Text Label 8150 3300 0    60   ~ 0
A7
Text Label 8150 3400 0    60   ~ 0
A8
Text Label 8150 3500 0    60   ~ 0
A9
Text Label 8150 3600 0    60   ~ 0
A10
Text Label 8150 3700 0    60   ~ 0
A11
Text Label 8150 3800 0    60   ~ 0
A12
Text Label 8150 3900 0    60   ~ 0
A13
Text Label 8150 4000 0    60   ~ 0
A14
Text Label 8150 4100 0    60   ~ 0
A15
Text Label 8150 4200 0    60   ~ 0
A16
Text Label 8150 4300 0    60   ~ 0
A17
Text Label 8150 4400 0    60   ~ 0
A18
Text Label 8150 4500 0    60   ~ 0
A19
Text Label 8150 4600 0    60   ~ 0
A20
Text Label 8150 4700 0    60   ~ 0
A21
Text Label 8150 4800 0    60   ~ 0
A22
Text Label 8150 4900 0    60   ~ 0
A23
Text Label 10550 6950 0    60   ~ 0
D0
Text Label 10550 7050 0    60   ~ 0
D1
Text Label 10550 7150 0    60   ~ 0
D2
Text Label 10550 7250 0    60   ~ 0
D3
Text Label 10550 7350 0    60   ~ 0
D4
Text Label 10550 7450 0    60   ~ 0
D5
Text Label 10550 7550 0    60   ~ 0
D6
Text Label 10550 7650 0    60   ~ 0
D7
Text Label 8150 5900 0    60   ~ 0
D8
Text Label 8150 6000 0    60   ~ 0
D9
Text Label 8150 6100 0    60   ~ 0
D10
Text Label 8150 6200 0    60   ~ 0
D11
Text Label 8150 6300 0    60   ~ 0
D12
Text Label 8150 6400 0    60   ~ 0
D13
Text Label 8150 6500 0    60   ~ 0
D14
Text Label 8150 6600 0    60   ~ 0
D15
$Comp
L XC9572 U2
U 1 1 54C5C3FA
P 3350 4100
F 0 "U2" H 4050 5350 60  0000 C CNN
F 1 "XC9572" H 2700 5350 60  0000 C CNN
F 2 "Housings_QFP:PQFP-100_14x20mm_Pitch0.65mm" H 2700 5150 60  0000 C CNN
F 3 "~" H 2700 5150 60  0000 C CNN
	1    3350 4100
	1    0    0    -1  
$EndComp
$Comp
L JTAG_CPLD U4
U 1 1 54C69247
P 4050 2200
F 0 "U4" H 4050 1750 60  0000 C CNN
F 1 "JTAG_CPLD" H 4050 2550 60  0000 C CNN
F 2 "Pin_Headers:Pin_Header_Straight_1x06" H 4050 2200 60  0001 C CNN
F 3 "" H 4050 2200 60  0000 C CNN
	1    4050 2200
	1    0    0    -1  
$EndComp
$Comp
L GND #PWR01
U 1 1 54C69298
P 3650 2400
F 0 "#PWR01" H 3650 2400 30  0001 C CNN
F 1 "GND" H 3650 2330 30  0001 C CNN
F 2 "" H 3650 2400 60  0000 C CNN
F 3 "" H 3650 2400 60  0000 C CNN
	1    3650 2400
	0    1    1    0   
$EndComp
$Comp
L +5V #PWR02
U 1 1 54C692D8
P 3650 2500
F 0 "#PWR02" H 3650 2590 20  0001 C CNN
F 1 "+5V" H 3650 2590 30  0000 C CNN
F 2 "" H 3650 2500 60  0000 C CNN
F 3 "" H 3650 2500 60  0000 C CNN
	1    3650 2500
	0    -1   -1   0   
$EndComp
$Comp
L ACOXXMHZ U1
U 1 1 54C69473
P 1450 1400
F 0 "U1" H 1450 1150 60  0000 C CNN
F 1 "ACO10MHZ" H 1450 1650 60  0000 C CNN
F 2 "Sockets_DIP:DIP-14__300" H 1450 1200 60  0000 C CNN
F 3 "~" H 1500 1400 60  0000 C CNN
	1    1450 1400
	1    0    0    -1  
$EndComp
$Comp
L C C9
U 1 1 54C69480
P 2450 1300
F 0 "C9" H 2450 1400 40  0000 L CNN
F 1 "15pF" H 2456 1215 40  0000 L CNN
F 2 "Discret:C1" V 2350 1300 30  0000 C CNN
F 3 "~" H 2450 1300 60  0000 C CNN
	1    2450 1300
	1    0    0    -1  
$EndComp
$Comp
L C C8
U 1 1 54C69490
P 2150 1100
F 0 "C8" H 2150 1200 40  0000 L CNN
F 1 "15pF" H 2156 1015 40  0000 L CNN
F 2 "Discret:C1" V 2050 1100 30  0000 C CNN
F 3 "~" H 2150 1100 60  0000 C CNN
	1    2150 1100
	1    0    0    -1  
$EndComp
$Comp
L GND #PWR03
U 1 1 54C6960F
P 850 1500
F 0 "#PWR03" H 850 1500 30  0001 C CNN
F 1 "GND" H 850 1430 30  0001 C CNN
F 2 "" H 850 1500 60  0000 C CNN
F 3 "" H 850 1500 60  0000 C CNN
	1    850  1500
	0    1    1    0   
$EndComp
$Comp
L GND #PWR04
U 1 1 54C69615
P 2300 700
F 0 "#PWR04" H 2300 700 30  0001 C CNN
F 1 "GND" H 2300 630 30  0001 C CNN
F 2 "" H 2300 700 60  0000 C CNN
F 3 "" H 2300 700 60  0000 C CNN
	1    2300 700 
	-1   0    0    1   
$EndComp
NoConn ~ 900  1300
Text Label 2550 1500 0    60   ~ 0
CLK
Text Label 6150 2700 2    60   ~ 0
CLK
Text Label 4600 3800 0    60   ~ 0
CLK
$Comp
L +5V #PWR05
U 1 1 54C69763
P 2200 1300
F 0 "#PWR05" H 2200 1390 20  0001 C CNN
F 1 "+5V" H 2200 1390 30  0000 C CNN
F 2 "" H 2200 1300 60  0000 C CNN
F 3 "" H 2200 1300 60  0000 C CNN
	1    2200 1300
	0    1    1    0   
$EndComp
NoConn ~ 6150 3400
NoConn ~ 6150 3500
NoConn ~ 6150 3600
$Comp
L AT28C256 U12
U 1 1 54C9B4EF
P 15300 6000
F 0 "U12" H 15400 7100 60  0000 C CNN
F 1 "AT28C256_LB" H 14750 7200 60  0000 C CNN
F 2 "Sockets:28TEX-Ell600" H 15300 6000 60  0000 C CNN
F 3 "~" H 15300 6000 60  0000 C CNN
	1    15300 6000
	1    0    0    -1  
$EndComp
Text Label 9150 2900 2    60   ~ 0
A1
Text Label 9150 3000 2    60   ~ 0
A2
Text Label 9150 3100 2    60   ~ 0
A3
Text Label 9150 3200 2    60   ~ 0
A4
Text Label 9150 2000 2    60   ~ 0
D0
Text Label 9150 2100 2    60   ~ 0
D1
Text Label 9150 2200 2    60   ~ 0
D2
Text Label 9150 2300 2    60   ~ 0
D3
Text Label 9150 2400 2    60   ~ 0
D4
Text Label 9150 2500 2    60   ~ 0
D5
Text Label 9150 2600 2    60   ~ 0
D6
Text Label 9150 2700 2    60   ~ 0
D7
$Comp
L MAX233 U9
U 1 1 54C9C2D7
P 13000 1500
F 0 "U9" H 13000 -100 60  0000 C CNN
F 1 "MAX233" H 13200 2150 60  0000 C CNN
F 2 "Sockets_DIP:DIP-20__300" H 13000 1500 60  0000 C CNN
F 3 "~" H 13000 1500 60  0000 C CNN
	1    13000 1500
	1    0    0    -1  
$EndComp
$Comp
L UM232R U14
U 1 1 54C9C4DD
P 15450 3250
F 0 "U14" H 15450 3150 60  0000 C CNN
F 1 "UM232R" H 15450 3350 60  0000 C CNN
F 2 "Sockets_DIP:DIP-24__600" H 15600 3100 60  0001 C CNN
F 3 "" H 15600 3100 60  0000 C CNN
	1    15450 3250
	1    0    0    -1  
$EndComp
Text Label 11150 2000 0    60   ~ 0
USB_TX
Text Label 11150 2100 0    60   ~ 0
USB_RX
Text Label 14600 3300 2    60   ~ 0
USB_TX
Text Label 14600 2900 2    60   ~ 0
USB_RX
Text Label 11150 2400 0    60   ~ 0
USB_RTS
Text Label 11150 3300 0    60   ~ 0
USB_CTS
Text Label 14600 3100 2    60   ~ 0
USB_CTS
Text Label 14600 3800 2    60   ~ 0
USB_RTS
Text Label 11150 1700 0    60   ~ 0
RS232_TX
Text Label 11150 1800 0    60   ~ 0
RS232_RX
Text Label 11150 3200 0    60   ~ 0
RS232_CTS
NoConn ~ 14600 3000
NoConn ~ 14600 3600
NoConn ~ 14600 3700
NoConn ~ 15450 4150
NoConn ~ 15550 2500
NoConn ~ 16300 3300
NoConn ~ 16300 3200
NoConn ~ 16300 3100
NoConn ~ 16300 3000
NoConn ~ 16300 2900
$Comp
L GND #PWR06
U 1 1 54C9C57E
P 15250 4150
F 0 "#PWR06" H 15250 4150 30  0001 C CNN
F 1 "GND" H 15250 4080 30  0001 C CNN
F 2 "" H 15250 4150 60  0000 C CNN
F 3 "" H 15250 4150 60  0000 C CNN
	1    15250 4150
	0    1    1    0   
$EndComp
$Comp
L GND #PWR07
U 1 1 54C9C584
P 14150 3500
F 0 "#PWR07" H 14150 3500 30  0001 C CNN
F 1 "GND" H 14150 3430 30  0001 C CNN
F 2 "" H 14150 3500 60  0000 C CNN
F 3 "" H 14150 3500 60  0000 C CNN
	1    14150 3500
	0    1    1    0   
$EndComp
$Comp
L +5V #PWR08
U 1 1 54C9C58A
P 15450 2300
F 0 "#PWR08" H 15450 2390 20  0001 C CNN
F 1 "+5V" H 15450 2390 30  0000 C CNN
F 2 "" H 15450 2300 60  0000 C CNN
F 3 "" H 15450 2300 60  0000 C CNN
	1    15450 2300
	1    0    0    -1  
$EndComp
NoConn ~ 14600 3200
NoConn ~ 14600 3400
$Comp
L DB9 J1
U 1 1 54C9CA53
P 15750 1350
F 0 "J1" H 15750 1900 70  0000 C CNN
F 1 "DB9" H 15750 800 70  0000 C CNN
F 2 "Connect:DB9FC" H 15750 1350 60  0001 C CNN
F 3 "" H 15750 1350 60  0000 C CNN
	1    15750 1350
	1    0    0    1   
$EndComp
Text Label 15300 1750 2    60   ~ 0
GND
Text Label 15300 1650 2    60   ~ 0
RI
Text Label 15300 1550 2    60   ~ 0
DTR
Text Label 15300 1450 2    60   ~ 0
CTS
Text Label 15300 1350 2    60   ~ 0
TXD
Text Label 15300 1250 2    60   ~ 0
RTS
Text Label 15300 1150 2    60   ~ 0
RXD
Text Label 15300 1050 2    60   ~ 0
DSR
Text Label 15300 950  2    60   ~ 0
DCD
NoConn ~ 12300 2700
$Comp
L GND #PWR09
U 1 1 54C9CB65
P 15150 1750
F 0 "#PWR09" H 15150 1750 30  0001 C CNN
F 1 "GND" H 15150 1680 30  0001 C CNN
F 2 "" H 15150 1750 60  0000 C CNN
F 3 "" H 15150 1750 60  0000 C CNN
	1    15150 1750
	0    1    -1   0   
$EndComp
$Comp
L +5V #PWR010
U 1 1 54C9CC7F
P 13000 600
F 0 "#PWR010" H 13000 690 20  0001 C CNN
F 1 "+5V" H 13000 690 30  0000 C CNN
F 2 "" H 13000 600 60  0000 C CNN
F 3 "" H 13000 600 60  0000 C CNN
	1    13000 600 
	1    0    0    -1  
$EndComp
NoConn ~ 15300 950 
NoConn ~ 15300 1650
Text Label 6150 5650 2    60   ~ 0
DTACK
Text Label 9150 3900 2    60   ~ 0
DTACK
Text Label 4600 8400 0    60   ~ 0
CS_UART
Text Label 9150 3400 2    60   ~ 0
CS_UART
Text Label 4600 9100 0    60   ~ 0
IRQ_UART
Text Label 9150 3500 2    60   ~ 0
R/W
Text Label 9150 3700 2    60   ~ 0
RESET
Text Label 14650 5000 2    60   ~ 0
A1
Text Label 14650 5100 2    60   ~ 0
A2
Text Label 14650 5200 2    60   ~ 0
A3
Text Label 14650 5300 2    60   ~ 0
A4
Text Label 14650 5400 2    60   ~ 0
A5
Text Label 14650 5500 2    60   ~ 0
A6
Text Label 14650 5600 2    60   ~ 0
A7
Text Label 14650 5700 2    60   ~ 0
A8
Text Label 14650 5800 2    60   ~ 0
A9
Text Label 14650 5900 2    60   ~ 0
A10
Text Label 14650 6000 2    60   ~ 0
A11
Text Label 14650 6100 2    60   ~ 0
A12
Text Label 14650 6200 2    60   ~ 0
A13
Text Label 14650 6300 2    60   ~ 0
A14
Text Label 15950 5700 0    60   ~ 0
D0
Text Label 15950 5800 0    60   ~ 0
D1
Text Label 15950 5900 0    60   ~ 0
D2
Text Label 15950 6400 0    60   ~ 0
D3
Text Label 15950 6300 0    60   ~ 0
D4
Text Label 15950 6200 0    60   ~ 0
D5
Text Label 15950 6100 0    60   ~ 0
D6
Text Label 15950 6000 0    60   ~ 0
D7
$Comp
L GND #PWR011
U 1 1 54CBAE7E
P 16150 5200
F 0 "#PWR011" H 16150 5200 30  0001 C CNN
F 1 "GND" H 16150 5130 30  0001 C CNN
F 2 "" H 16150 5200 60  0000 C CNN
F 3 "" H 16150 5200 60  0000 C CNN
	1    16150 5200
	0    -1   -1   0   
$EndComp
Text Label 15950 5100 0    60   ~ 0
R/W
Text Label 15950 5000 0    60   ~ 0
ROM_LB_CS
Text Label 4600 9200 0    60   ~ 0
ROM_LB_CS
$Comp
L CY7C199CN U10
U 1 1 54CBAF93
P 12900 6000
F 0 "U10" H 13000 7100 60  0000 C CNN
F 1 "CY7C199CN_LB" H 12400 7200 60  0000 C CNN
F 2 "Sockets_DIP:DIP-28__300" H 12900 6000 60  0000 C CNN
F 3 "~" H 12900 6000 60  0000 C CNN
	1    12900 6000
	1    0    0    -1  
$EndComp
Text Label 13550 5100 0    60   ~ 0
R/W
Text Label 13550 5000 0    60   ~ 0
RAM_LB_CS
Text Label 13550 5700 0    60   ~ 0
D0
Text Label 13550 5800 0    60   ~ 0
D1
Text Label 13550 5900 0    60   ~ 0
D2
Text Label 13550 6000 0    60   ~ 0
D3
Text Label 13550 6100 0    60   ~ 0
D4
Text Label 13550 6200 0    60   ~ 0
D5
Text Label 13550 6300 0    60   ~ 0
D6
Text Label 13550 6400 0    60   ~ 0
D7
Text Label 12250 5000 2    60   ~ 0
A1
Text Label 12250 5100 2    60   ~ 0
A2
Text Label 12250 5200 2    60   ~ 0
A3
Text Label 12250 5300 2    60   ~ 0
A4
Text Label 12250 5400 2    60   ~ 0
A5
Text Label 12250 5500 2    60   ~ 0
A6
Text Label 12250 5600 2    60   ~ 0
A7
Text Label 12250 5700 2    60   ~ 0
A8
Text Label 12250 5800 2    60   ~ 0
A9
Text Label 12250 5900 2    60   ~ 0
A10
Text Label 12250 6000 2    60   ~ 0
A11
Text Label 12250 6100 2    60   ~ 0
A12
Text Label 12250 6200 2    60   ~ 0
A13
Text Label 12250 6300 2    60   ~ 0
A14
$Comp
L GND #PWR012
U 1 1 54CBB3DC
P 13750 5200
F 0 "#PWR012" H 13750 5200 30  0001 C CNN
F 1 "GND" H 13750 5130 30  0001 C CNN
F 2 "" H 13750 5200 60  0000 C CNN
F 3 "" H 13750 5200 60  0000 C CNN
	1    13750 5200
	0    -1   -1   0   
$EndComp
$Comp
L GND #PWR013
U 1 1 54CBB598
P 15300 6850
F 0 "#PWR013" H 15300 6850 30  0001 C CNN
F 1 "GND" H 15300 6780 30  0001 C CNN
F 2 "" H 15300 6850 60  0000 C CNN
F 3 "" H 15300 6850 60  0000 C CNN
	1    15300 6850
	1    0    0    -1  
$EndComp
$Comp
L GND #PWR014
U 1 1 54CBB59E
P 12900 6850
F 0 "#PWR014" H 12900 6850 30  0001 C CNN
F 1 "GND" H 12900 6780 30  0001 C CNN
F 2 "" H 12900 6850 60  0000 C CNN
F 3 "" H 12900 6850 60  0000 C CNN
	1    12900 6850
	1    0    0    -1  
$EndComp
$Comp
L +5V #PWR015
U 1 1 54CBB5A4
P 12900 4550
F 0 "#PWR015" H 12900 4640 20  0001 C CNN
F 1 "+5V" H 12900 4640 30  0000 C CNN
F 2 "" H 12900 4550 60  0000 C CNN
F 3 "" H 12900 4550 60  0000 C CNN
	1    12900 4550
	1    0    0    -1  
$EndComp
$Comp
L +5V #PWR016
U 1 1 54CBB5C8
P 15300 4550
F 0 "#PWR016" H 15300 4640 20  0001 C CNN
F 1 "+5V" H 15300 4640 30  0000 C CNN
F 2 "" H 15300 4550 60  0000 C CNN
F 3 "" H 15300 4550 60  0000 C CNN
	1    15300 4550
	1    0    0    -1  
$EndComp
$Comp
L AT28C256 U13
U 1 1 54CBD006
P 15300 8550
F 0 "U13" H 15400 9650 60  0000 C CNN
F 1 "AT28C256_HB" H 14750 9750 60  0000 C CNN
F 2 "Sockets:28TEX-Ell600" H 15300 8550 60  0000 C CNN
F 3 "~" H 15300 8550 60  0000 C CNN
	1    15300 8550
	1    0    0    -1  
$EndComp
Text Label 14650 7550 2    60   ~ 0
A1
Text Label 14650 7650 2    60   ~ 0
A2
Text Label 14650 7750 2    60   ~ 0
A3
Text Label 14650 7850 2    60   ~ 0
A4
Text Label 14650 7950 2    60   ~ 0
A5
Text Label 14650 8050 2    60   ~ 0
A6
Text Label 14650 8150 2    60   ~ 0
A7
Text Label 14650 8250 2    60   ~ 0
A8
Text Label 14650 8350 2    60   ~ 0
A9
Text Label 14650 8450 2    60   ~ 0
A10
Text Label 14650 8550 2    60   ~ 0
A11
Text Label 14650 8650 2    60   ~ 0
A12
Text Label 14650 8750 2    60   ~ 0
A13
Text Label 14650 8850 2    60   ~ 0
A14
Text Label 15950 8250 0    60   ~ 0
D8
Text Label 15950 8350 0    60   ~ 0
D9
Text Label 15950 8450 0    60   ~ 0
D10
Text Label 15950 8950 0    60   ~ 0
D11
Text Label 15950 8850 0    60   ~ 0
D12
Text Label 15950 8750 0    60   ~ 0
D13
Text Label 15950 8650 0    60   ~ 0
D14
Text Label 15950 8550 0    60   ~ 0
D15
$Comp
L GND #PWR017
U 1 1 54CBD023
P 16150 7750
F 0 "#PWR017" H 16150 7750 30  0001 C CNN
F 1 "GND" H 16150 7680 30  0001 C CNN
F 2 "" H 16150 7750 60  0000 C CNN
F 3 "" H 16150 7750 60  0000 C CNN
	1    16150 7750
	0    -1   -1   0   
$EndComp
Text Label 15950 7650 0    60   ~ 0
R/W
Text Label 15950 7550 0    60   ~ 0
ROM_HB_CS
$Comp
L GND #PWR018
U 1 1 54CBD033
P 15300 9400
F 0 "#PWR018" H 15300 9400 30  0001 C CNN
F 1 "GND" H 15300 9330 30  0001 C CNN
F 2 "" H 15300 9400 60  0000 C CNN
F 3 "" H 15300 9400 60  0000 C CNN
	1    15300 9400
	1    0    0    -1  
$EndComp
$Comp
L +5V #PWR019
U 1 1 54CBD039
P 15300 7100
F 0 "#PWR019" H 15300 7190 20  0001 C CNN
F 1 "+5V" H 15300 7190 30  0000 C CNN
F 2 "" H 15300 7100 60  0000 C CNN
F 3 "" H 15300 7100 60  0000 C CNN
	1    15300 7100
	1    0    0    -1  
$EndComp
Text Label 4600 8800 0    60   ~ 0
ROM_HB_CS
$Comp
L CY7C199CN U11
U 1 1 54CBD086
P 12900 8550
F 0 "U11" H 13000 9650 60  0000 C CNN
F 1 "CY7C199CN_HB" H 12400 9750 60  0000 C CNN
F 2 "Sockets_DIP:DIP-28__300" H 12900 8550 60  0000 C CNN
F 3 "~" H 12900 8550 60  0000 C CNN
	1    12900 8550
	1    0    0    -1  
$EndComp
Text Label 13550 7650 0    60   ~ 0
R/W
Text Label 13550 7550 0    60   ~ 0
RAM_HB_CS
Text Label 13550 8250 0    60   ~ 0
D8
Text Label 13550 8350 0    60   ~ 0
D9
Text Label 13550 8450 0    60   ~ 0
D10
Text Label 13550 8550 0    60   ~ 0
D11
Text Label 13550 8650 0    60   ~ 0
D12
Text Label 13550 8750 0    60   ~ 0
D13
Text Label 13550 8850 0    60   ~ 0
D14
Text Label 13550 8950 0    60   ~ 0
D15
Text Label 12250 7550 2    60   ~ 0
A1
Text Label 12250 7650 2    60   ~ 0
A2
Text Label 12250 7750 2    60   ~ 0
A3
Text Label 12250 7850 2    60   ~ 0
A4
Text Label 12250 7950 2    60   ~ 0
A5
Text Label 12250 8050 2    60   ~ 0
A6
Text Label 12250 8150 2    60   ~ 0
A7
Text Label 12250 8250 2    60   ~ 0
A8
Text Label 12250 8350 2    60   ~ 0
A9
Text Label 12250 8450 2    60   ~ 0
A10
Text Label 12250 8550 2    60   ~ 0
A11
Text Label 12250 8650 2    60   ~ 0
A12
Text Label 12250 8750 2    60   ~ 0
A13
Text Label 12250 8850 2    60   ~ 0
A14
$Comp
L GND #PWR020
U 1 1 54CBD0A5
P 13750 7750
F 0 "#PWR020" H 13750 7750 30  0001 C CNN
F 1 "GND" H 13750 7680 30  0001 C CNN
F 2 "" H 13750 7750 60  0000 C CNN
F 3 "" H 13750 7750 60  0000 C CNN
	1    13750 7750
	0    -1   -1   0   
$EndComp
$Comp
L GND #PWR021
U 1 1 54CBD0B3
P 12900 9400
F 0 "#PWR021" H 12900 9400 30  0001 C CNN
F 1 "GND" H 12900 9330 30  0001 C CNN
F 2 "" H 12900 9400 60  0000 C CNN
F 3 "" H 12900 9400 60  0000 C CNN
	1    12900 9400
	1    0    0    -1  
$EndComp
$Comp
L +5V #PWR022
U 1 1 54CBD0B9
P 12900 7100
F 0 "#PWR022" H 12900 7190 20  0001 C CNN
F 1 "+5V" H 12900 7190 30  0000 C CNN
F 2 "" H 12900 7100 60  0000 C CNN
F 3 "" H 12900 7100 60  0000 C CNN
	1    12900 7100
	1    0    0    -1  
$EndComp
Text Label 4600 8600 0    60   ~ 0
RAM_HB_CS
Text Label 4600 8700 0    60   ~ 0
RAM_LB_CS
Text Label 6150 5450 2    60   ~ 0
BERR
Text Label 6150 6100 2    60   ~ 0
HALT
Text Label 6150 6200 2    60   ~ 0
RESET
Text Label 6150 3000 2    60   ~ 0
IPL0
Text Label 6150 3100 2    60   ~ 0
IPL1
Text Label 6150 3200 2    60   ~ 0
IPL2
Text Label 6150 3900 2    60   ~ 0
FC0
Text Label 6150 4000 2    60   ~ 0
FC1
Text Label 6150 4100 2    60   ~ 0
FC2
Text Label 6150 4400 2    60   ~ 0
VMA
Text Label 6150 4500 2    60   ~ 0
E
Text Label 6150 4600 2    60   ~ 0
VPA
Text Label 8150 6800 0    60   ~ 0
AS
Text Label 8150 6900 0    60   ~ 0
UDS
Text Label 8150 7000 0    60   ~ 0
LDS
Text Label 8150 7100 0    60   ~ 0
R/W
Text Label 4600 4400 0    60   ~ 0
UDS
Text Label 4600 4600 0    60   ~ 0
LDS
Text Label 3750 2000 2    60   ~ 0
TMS
Text Label 3750 2100 2    60   ~ 0
TDI
Text Label 3750 2200 2    60   ~ 0
TDO
Text Label 3750 2300 2    60   ~ 0
TCK
NoConn ~ 12300 2300
NoConn ~ 12300 2400
$Comp
L GND #PWR023
U 1 1 54CBE95E
P 13000 3250
F 0 "#PWR023" H 13000 3250 30  0001 C CNN
F 1 "GND" H 13000 3180 30  0001 C CNN
F 2 "" H 13000 3250 60  0000 C CNN
F 3 "" H 13000 3250 60  0000 C CNN
	1    13000 3250
	1    0    0    -1  
$EndComp
Text Label 4600 6400 0    60   ~ 0
A23
Text Label 4600 6200 0    60   ~ 0
A22
Text Label 4600 6300 0    60   ~ 0
A21
Text Label 4600 6100 0    60   ~ 0
A20
Text Label 4600 6000 0    60   ~ 0
A19
Text Label 4600 5900 0    60   ~ 0
A18
Text Label 4600 5800 0    60   ~ 0
A17
Text Label 4600 5400 0    60   ~ 0
A16
Text Label 4600 5700 0    60   ~ 0
A15
$Comp
L +5V #PWR024
U 1 1 54CBEF70
P 7150 2400
F 0 "#PWR024" H 7150 2490 20  0001 C CNN
F 1 "+5V" H 7150 2490 30  0000 C CNN
F 2 "" H 7150 2400 60  0000 C CNN
F 3 "" H 7150 2400 60  0000 C CNN
	1    7150 2400
	1    0    0    -1  
$EndComp
$Comp
L +5V #PWR025
U 1 1 54CBF0B0
P 1950 6400
F 0 "#PWR025" H 1950 6490 20  0001 C CNN
F 1 "+5V" H 1950 6490 30  0000 C CNN
F 2 "" H 1950 6400 60  0000 C CNN
F 3 "" H 1950 6400 60  0000 C CNN
	1    1950 6400
	-1   0    0    1   
$EndComp
$Comp
L LINEARREGULATOR U6
U 1 1 54CD167A
P 7500 1450
F 0 "U6" H 7650 1250 60  0000 C CNN
F 1 "LINEARREGULATOR" H 7500 1650 60  0000 C CNN
F 2 "Discret:TO220_VERT" H 7500 1450 60  0001 C CNN
F 3 "" H 7500 1450 60  0000 C CNN
	1    7500 1450
	1    0    0    -1  
$EndComp
$Comp
L C C13
U 1 1 54CD169B
P 7000 1700
F 0 "C13" H 7000 1800 40  0000 L CNN
F 1 "0.1uF" H 7006 1615 40  0000 L CNN
F 2 "Discret:C1" H 7038 1550 30  0000 C CNN
F 3 "~" H 7000 1700 60  0000 C CNN
	1    7000 1700
	1    0    0    -1  
$EndComp
$Comp
L GND #PWR026
U 1 1 54CD16C8
P 7500 2050
F 0 "#PWR026" H 7500 2050 30  0001 C CNN
F 1 "GND" H 7500 1980 30  0001 C CNN
F 2 "" H 7500 2050 60  0000 C CNN
F 3 "" H 7500 2050 60  0000 C CNN
	1    7500 2050
	1    0    0    -1  
$EndComp
$Comp
L +5V #PWR027
U 1 1 54CD1A11
P 8100 1350
F 0 "#PWR027" H 8100 1440 20  0001 C CNN
F 1 "+5V" H 8100 1440 30  0000 C CNN
F 2 "" H 8100 1350 60  0000 C CNN
F 3 "" H 8100 1350 60  0000 C CNN
	1    8100 1350
	0    1    1    0   
$EndComp
$Comp
L BARREL_JACK CON1
U 1 1 54CD1AC3
P 6050 1450
F 0 "CON1" H 6050 1650 60  0000 C CNN
F 1 "BARREL_JACK" H 6050 1250 60  0000 C CNN
F 2 "Connect:BARREL_JACK" H 6050 1450 60  0001 C CNN
F 3 "" H 6050 1450 60  0000 C CNN
	1    6050 1450
	1    0    0    -1  
$EndComp
Text Label 4600 8100 0    60   ~ 0
D7
Text Label 4600 7800 0    60   ~ 0
D6
Text Label 4600 7700 0    60   ~ 0
D5
Text Label 4600 7500 0    60   ~ 0
D4
Text Label 4600 8000 0    60   ~ 0
D3
Text Label 4600 7900 0    60   ~ 0
D2
Text Label 4600 8300 0    60   ~ 0
D1
Text Label 4600 8200 0    60   ~ 0
D0
$Comp
L C C20
U 1 1 54D01865
P 12600 4650
F 0 "C20" H 12600 4750 40  0000 L CNN
F 1 "0.1uF" H 12606 4565 40  0000 L CNN
F 2 "Discret:C1" H 12638 4500 30  0000 C CNN
F 3 "~" H 12600 4650 60  0000 C CNN
	1    12600 4650
	0    -1   -1   0   
$EndComp
$Comp
L C C22
U 1 1 54D01875
P 15000 4650
F 0 "C22" H 15000 4750 40  0000 L CNN
F 1 "0.1uF" H 15006 4565 40  0000 L CNN
F 2 "Discret:C1" H 15038 4500 30  0000 C CNN
F 3 "~" H 15000 4650 60  0000 C CNN
	1    15000 4650
	0    -1   -1   0   
$EndComp
$Comp
L GND #PWR028
U 1 1 54D0187B
P 12300 4650
F 0 "#PWR028" H 12300 4650 30  0001 C CNN
F 1 "GND" H 12300 4580 30  0001 C CNN
F 2 "" H 12300 4650 60  0000 C CNN
F 3 "" H 12300 4650 60  0000 C CNN
	1    12300 4650
	0    1    1    0   
$EndComp
$Comp
L GND #PWR029
U 1 1 54D01881
P 14700 4650
F 0 "#PWR029" H 14700 4650 30  0001 C CNN
F 1 "GND" H 14700 4580 30  0001 C CNN
F 2 "" H 14700 4650 60  0000 C CNN
F 3 "" H 14700 4650 60  0000 C CNN
	1    14700 4650
	0    1    1    0   
$EndComp
$Comp
L C C21
U 1 1 54D01B0D
P 12600 7200
F 0 "C21" H 12600 7300 40  0000 L CNN
F 1 "0.1uF" H 12606 7115 40  0000 L CNN
F 2 "Discret:C1" H 12638 7050 30  0000 C CNN
F 3 "~" H 12600 7200 60  0000 C CNN
	1    12600 7200
	0    -1   -1   0   
$EndComp
$Comp
L C C23
U 1 1 54D01B13
P 15000 7200
F 0 "C23" H 15000 7300 40  0000 L CNN
F 1 "0.1uF" H 15006 7115 40  0000 L CNN
F 2 "Discret:C1" H 15038 7050 30  0000 C CNN
F 3 "~" H 15000 7200 60  0000 C CNN
	1    15000 7200
	0    -1   -1   0   
$EndComp
$Comp
L GND #PWR030
U 1 1 54D01B19
P 12300 7200
F 0 "#PWR030" H 12300 7200 30  0001 C CNN
F 1 "GND" H 12300 7130 30  0001 C CNN
F 2 "" H 12300 7200 60  0000 C CNN
F 3 "" H 12300 7200 60  0000 C CNN
	1    12300 7200
	0    1    1    0   
$EndComp
$Comp
L GND #PWR031
U 1 1 54D01B1F
P 14700 7200
F 0 "#PWR031" H 14700 7200 30  0001 C CNN
F 1 "GND" H 14700 7130 30  0001 C CNN
F 2 "" H 14700 7200 60  0000 C CNN
F 3 "" H 14700 7200 60  0000 C CNN
	1    14700 7200
	0    1    1    0   
$EndComp
$Comp
L C C19
U 1 1 54D01DBB
P 12650 600
F 0 "C19" H 12650 700 40  0000 L CNN
F 1 "0.1uF" H 12656 515 40  0000 L CNN
F 2 "Discret:C1" H 12688 450 30  0000 C CNN
F 3 "~" H 12650 600 60  0000 C CNN
	1    12650 600 
	0    -1   -1   0   
$EndComp
$Comp
L GND #PWR032
U 1 1 54D01E69
P 12350 600
F 0 "#PWR032" H 12350 600 30  0001 C CNN
F 1 "GND" H 12350 530 30  0001 C CNN
F 2 "" H 12350 600 60  0000 C CNN
F 3 "" H 12350 600 60  0000 C CNN
	1    12350 600 
	0    1    1    0   
$EndComp
$Comp
L 68681_V U7
U 1 1 54D02071
P 10150 2900
F 0 "U7" H 10150 3050 70  0000 C CNN
F 1 "68681_V" H 10150 2800 70  0000 C CNN
F 2 "Sockets:PLCC44" H 10150 2900 60  0000 C CNN
F 3 "~" H 10150 2900 60  0000 C CNN
	1    10150 2900
	1    0    0    -1  
$EndComp
NoConn ~ 11150 2500
Text Label 11150 3300 0    60   ~ 0
USB_CTS
Text Label 11150 3200 0    60   ~ 0
RS232_CTS
Text Label 11150 2400 0    60   ~ 0
USB_RTS
Text Label 11150 2300 0    60   ~ 0
RS232_RTS
Text Label 11150 2100 0    60   ~ 0
USB_RX
Text Label 11150 2000 0    60   ~ 0
USB_TX
Text Label 11150 1800 0    60   ~ 0
RS232_RX
Text Label 11150 1700 0    60   ~ 0
RS232_TX
$Comp
L +5V #PWR033
U 1 1 54D02561
P 10150 1300
F 0 "#PWR033" H 10150 1390 20  0001 C CNN
F 1 "+5V" H 10150 1390 30  0000 C CNN
F 2 "" H 10150 1300 60  0000 C CNN
F 3 "" H 10150 1300 60  0000 C CNN
	1    10150 1300
	1    0    0    -1  
$EndComp
$Comp
L C C18
U 1 1 54D02567
P 9950 1450
F 0 "C18" H 9950 1550 40  0000 L CNN
F 1 "0.1uF" H 9956 1365 40  0000 L CNN
F 2 "Discret:C1" H 9988 1300 30  0000 C CNN
F 3 "~" H 9950 1450 60  0000 C CNN
	1    9950 1450
	0    -1   -1   0   
$EndComp
$Comp
L GND #PWR034
U 1 1 54D02577
P 9600 1450
F 0 "#PWR034" H 9600 1450 30  0001 C CNN
F 1 "GND" H 9600 1380 30  0001 C CNN
F 2 "" H 9600 1450 60  0000 C CNN
F 3 "" H 9600 1450 60  0000 C CNN
	1    9600 1450
	0    1    1    0   
$EndComp
$Comp
L C C12
U 1 1 54D02858
P 6900 2500
F 0 "C12" H 6900 2600 40  0000 L CNN
F 1 "0.1uF" H 6906 2415 40  0000 L CNN
F 2 "Discret:C1" H 6938 2350 30  0000 C CNN
F 3 "~" H 6900 2500 60  0000 C CNN
	1    6900 2500
	0    -1   -1   0   
$EndComp
$Comp
L C C14
U 1 1 54D0285E
P 7400 2500
F 0 "C14" H 7400 2600 40  0000 L CNN
F 1 "0.1uF" H 7406 2415 40  0000 L CNN
F 2 "Discret:C1" H 7438 2350 30  0000 C CNN
F 3 "~" H 7400 2500 60  0000 C CNN
	1    7400 2500
	0    1    1    0   
$EndComp
$Comp
L GND #PWR035
U 1 1 54D02864
P 6600 2500
F 0 "#PWR035" H 6600 2500 30  0001 C CNN
F 1 "GND" H 6600 2430 30  0001 C CNN
F 2 "" H 6600 2500 60  0000 C CNN
F 3 "" H 6600 2500 60  0000 C CNN
	1    6600 2500
	0    1    1    0   
$EndComp
$Comp
L GND #PWR036
U 1 1 54D0286A
P 7700 2500
F 0 "#PWR036" H 7700 2500 30  0001 C CNN
F 1 "GND" H 7700 2430 30  0001 C CNN
F 2 "" H 7700 2500 60  0000 C CNN
F 3 "" H 7700 2500 60  0000 C CNN
	1    7700 2500
	0    -1   -1   0   
$EndComp
$Comp
L C C7
U 1 1 54D02C93
P 1950 5550
F 0 "C7" H 1950 5650 40  0000 L CNN
F 1 "0.1uF" H 1956 5465 40  0000 L CNN
F 2 "Discret:C1" H 1988 5400 30  0000 C CNN
F 3 "~" H 1950 5550 60  0000 C CNN
	1    1950 5550
	1    0    0    -1  
$EndComp
$Comp
L C C5
U 1 1 54D02CAF
P 1550 5750
F 0 "C5" H 1550 5850 40  0000 L CNN
F 1 "0.1uF" H 1556 5665 40  0000 L CNN
F 2 "Discret:C1" H 1588 5600 30  0000 C CNN
F 3 "~" H 1550 5750 60  0000 C CNN
	1    1550 5750
	1    0    0    -1  
$EndComp
$Comp
L C C3
U 1 1 54D02CBF
P 1150 6000
F 0 "C3" H 1150 6100 40  0000 L CNN
F 1 "0.1uF" H 1156 5915 40  0000 L CNN
F 2 "Discret:C1" H 1188 5850 30  0000 C CNN
F 3 "~" H 1150 6000 60  0000 C CNN
	1    1150 6000
	1    0    0    -1  
$EndComp
$Comp
L C C2
U 1 1 54D02CC5
P 950 6100
F 0 "C2" H 950 6200 40  0000 L CNN
F 1 "0.1uF" H 956 6015 40  0000 L CNN
F 2 "Discret:C1" H 988 5950 30  0000 C CNN
F 3 "~" H 950 6100 60  0000 C CNN
	1    950  6100
	1    0    0    -1  
$EndComp
$Comp
L C C1
U 1 1 54D02CCB
P 750 6200
F 0 "C1" H 750 6300 40  0000 L CNN
F 1 "0.1uF" H 756 6115 40  0000 L CNN
F 2 "Discret:C1" H 788 6050 30  0000 C CNN
F 3 "~" H 750 6200 60  0000 C CNN
	1    750  6200
	1    0    0    -1  
$EndComp
$Comp
L GND #PWR037
U 1 1 54D036F1
P 1350 5300
F 0 "#PWR037" H 1350 5300 30  0001 C CNN
F 1 "GND" H 1350 5230 30  0001 C CNN
F 2 "" H 1350 5300 60  0000 C CNN
F 3 "" H 1350 5300 60  0000 C CNN
	1    1350 5300
	-1   0    0    1   
$EndComp
$Comp
L C C24
U 1 1 54D04D8E
P 15150 2450
F 0 "C24" H 15150 2550 40  0000 L CNN
F 1 "0.1uF" H 15156 2365 40  0000 L CNN
F 2 "Discret:C1" H 15188 2300 30  0000 C CNN
F 3 "~" H 15150 2450 60  0000 C CNN
	1    15150 2450
	0    -1   -1   0   
$EndComp
$Comp
L C C25
U 1 1 54D04DA8
P 15650 2450
F 0 "C25" H 15650 2550 40  0000 L CNN
F 1 "0.1uF" H 15656 2365 40  0000 L CNN
F 2 "Discret:C1" H 15688 2300 30  0000 C CNN
F 3 "~" H 15650 2450 60  0000 C CNN
	1    15650 2450
	0    -1   -1   0   
$EndComp
$Comp
L GND #PWR038
U 1 1 54D0502E
P 14850 2450
F 0 "#PWR038" H 14850 2450 30  0001 C CNN
F 1 "GND" H 14850 2380 30  0001 C CNN
F 2 "" H 14850 2450 60  0000 C CNN
F 3 "" H 14850 2450 60  0000 C CNN
	1    14850 2450
	0    1    -1   0   
$EndComp
$Comp
L GND #PWR039
U 1 1 54D051D8
P 15950 2450
F 0 "#PWR039" H 15950 2450 30  0001 C CNN
F 1 "GND" H 15950 2380 30  0001 C CNN
F 2 "" H 15950 2450 60  0000 C CNN
F 3 "" H 15950 2450 60  0000 C CNN
	1    15950 2450
	0    -1   1    0   
$EndComp
$Comp
L GND #PWR040
U 1 1 54D058E3
P 2100 7450
F 0 "#PWR040" H 2100 7450 30  0001 C CNN
F 1 "GND" H 2100 7380 30  0001 C CNN
F 2 "" H 2100 7450 60  0000 C CNN
F 3 "" H 2100 7450 60  0000 C CNN
	1    2100 7450
	0    -1   -1   0   
$EndComp
Text Label 10550 6550 0    60   ~ 0
SCLK
Text Label 4600 10100 0    60   ~ 0
MOSI
Text Label 4600 9300 0    60   ~ 0
MISO
Text Label 4600 9700 0    60   ~ 0
SS1
Text Label 4600 9000 0    60   ~ 0
SS2
Text Label 4600 8900 0    60   ~ 0
SS3
Text Label 4600 5600 0    60   ~ 0
A14
Text Label 4600 5500 0    60   ~ 0
A13
Text Label 4600 5300 0    60   ~ 0
A12
Text Label 4600 5200 0    60   ~ 0
A11
Text Label 4600 4900 0    60   ~ 0
A10
Text Label 4600 5100 0    60   ~ 0
A9
Text Label 4600 6500 0    60   ~ 0
A8
Text Label 4600 5000 0    60   ~ 0
A7
Text Label 4600 4800 0    60   ~ 0
A6
Text Label 4600 10000 0    60   ~ 0
A5
Text Label 4600 9800 0    60   ~ 0
A4
Text Label 4600 9900 0    60   ~ 0
A3
Text Label 4600 9600 0    60   ~ 0
A2
Text Label 4600 9500 0    60   ~ 0
A1
Text Label 4600 6700 0    60   ~ 0
R/W
Text Label 4600 7000 0    60   ~ 0
AS
$Comp
L CONN_13X2 P6
U 1 1 54D079F1
P 10150 7050
F 0 "P6" H 10150 7750 60  0000 C CNN
F 1 "CONN_13X2" V 10150 7050 50  0000 C CNN
F 2 "Pin_Headers:Pin_Header_Straight_2x13" H 10150 7050 60  0001 C CNN
F 3 "" H 10150 7050 60  0000 C CNN
	1    10150 7050
	1    0    0    -1  
$EndComp
$Comp
L +5V #PWR041
U 1 1 54D07A08
P 9650 6400
F 0 "#PWR041" H 9650 6490 20  0001 C CNN
F 1 "+5V" H 9650 6490 30  0000 C CNN
F 2 "" H 9650 6400 60  0000 C CNN
F 3 "" H 9650 6400 60  0000 C CNN
	1    9650 6400
	1    0    0    -1  
$EndComp
$Comp
L GND #PWR042
U 1 1 54D07A14
P 10650 6400
F 0 "#PWR042" H 10650 6400 30  0001 C CNN
F 1 "GND" H 10650 6330 30  0001 C CNN
F 2 "" H 10650 6400 60  0000 C CNN
F 3 "" H 10650 6400 60  0000 C CNN
	1    10650 6400
	-1   0    0    1   
$EndComp
Text Label 9750 6550 2    60   ~ 0
SS1
Text Label 9750 6650 2    60   ~ 0
SS2
Text Label 9750 6750 2    60   ~ 0
SS3
Text Label 10550 6650 0    60   ~ 0
MISO
Text Label 10550 6750 0    60   ~ 0
MOSI
Text Label 9750 6950 2    60   ~ 0
A1
Text Label 9750 7050 2    60   ~ 0
A2
Text Label 9750 7150 2    60   ~ 0
A3
Text Label 9750 7250 2    60   ~ 0
A4
Text Label 9750 7350 2    60   ~ 0
A5
Text Label 9750 7450 2    60   ~ 0
A6
Text Label 9750 7550 2    60   ~ 0
A7
Text Label 9750 7650 2    60   ~ 0
A8
$Comp
L GND #PWR043
U 1 1 54D07DE5
P 10750 6850
F 0 "#PWR043" H 10750 6850 30  0001 C CNN
F 1 "GND" H 10750 6780 30  0001 C CNN
F 2 "" H 10750 6850 60  0000 C CNN
F 3 "" H 10750 6850 60  0000 C CNN
	1    10750 6850
	0    -1   -1   0   
$EndComp
Text Label 9750 6850 2    60   ~ 0
SS4
Text Label 4600 9400 0    60   ~ 0
SS4
Text Label 10550 5250 0    60   ~ 0
D0
Text Label 10550 5350 0    60   ~ 0
D1
Text Label 10550 5450 0    60   ~ 0
D2
Text Label 10550 5550 0    60   ~ 0
D3
Text Label 10550 5650 0    60   ~ 0
D4
Text Label 10550 5750 0    60   ~ 0
D5
Text Label 10550 5850 0    60   ~ 0
D6
Text Label 10550 5950 0    60   ~ 0
D7
Text Label 10550 4850 0    60   ~ 0
SCLK
$Comp
L CONN_13X2 P5
U 1 1 54D08159
P 10150 5350
F 0 "P5" H 10150 6050 60  0000 C CNN
F 1 "CONN_13X2" V 10150 5350 50  0000 C CNN
F 2 "Pin_Headers:Pin_Header_Straight_2x13" H 10150 5350 60  0001 C CNN
F 3 "" H 10150 5350 60  0000 C CNN
	1    10150 5350
	1    0    0    -1  
$EndComp
$Comp
L +5V #PWR044
U 1 1 54D0815F
P 9650 4700
F 0 "#PWR044" H 9650 4790 20  0001 C CNN
F 1 "+5V" H 9650 4790 30  0000 C CNN
F 2 "" H 9650 4700 60  0000 C CNN
F 3 "" H 9650 4700 60  0000 C CNN
	1    9650 4700
	1    0    0    -1  
$EndComp
$Comp
L GND #PWR045
U 1 1 54D08165
P 10650 4700
F 0 "#PWR045" H 10650 4700 30  0001 C CNN
F 1 "GND" H 10650 4630 30  0001 C CNN
F 2 "" H 10650 4700 60  0000 C CNN
F 3 "" H 10650 4700 60  0000 C CNN
	1    10650 4700
	-1   0    0    1   
$EndComp
Text Label 9750 4850 2    60   ~ 0
SS1
Text Label 9750 4950 2    60   ~ 0
SS2
Text Label 9750 5050 2    60   ~ 0
SS3
Text Label 10550 4950 0    60   ~ 0
MISO
Text Label 10550 5050 0    60   ~ 0
MOSI
Text Label 9750 5250 2    60   ~ 0
A1
Text Label 9750 5350 2    60   ~ 0
A2
Text Label 9750 5450 2    60   ~ 0
A3
Text Label 9750 5550 2    60   ~ 0
A4
Text Label 9750 5650 2    60   ~ 0
A5
Text Label 9750 5750 2    60   ~ 0
A6
Text Label 9750 5850 2    60   ~ 0
A7
Text Label 9750 5950 2    60   ~ 0
A8
$Comp
L GND #PWR046
U 1 1 54D0817C
P 10750 5150
F 0 "#PWR046" H 10750 5150 30  0001 C CNN
F 1 "GND" H 10750 5080 30  0001 C CNN
F 2 "" H 10750 5150 60  0000 C CNN
F 3 "" H 10750 5150 60  0000 C CNN
	1    10750 5150
	0    -1   -1   0   
$EndComp
Text Label 9750 5150 2    60   ~ 0
SS4
Text Label 8150 5100 0    60   ~ 0
D0
Text Label 8150 5200 0    60   ~ 0
D1
Text Label 8150 5300 0    60   ~ 0
D2
Text Label 8150 5400 0    60   ~ 0
D3
Text Label 8150 5500 0    60   ~ 0
D4
Text Label 8150 5600 0    60   ~ 0
D5
Text Label 8150 5700 0    60   ~ 0
D6
Text Label 8150 5800 0    60   ~ 0
D7
Text Label 12250 6400 2    60   ~ 0
A15
Text Label 14650 6400 2    60   ~ 0
A15
Text Label 12250 8950 2    60   ~ 0
A15
Text Label 14650 8950 2    60   ~ 0
A15
$Comp
L ACOXXMHZ U3
U 1 1 54D111D0
P 3850 1400
F 0 "U3" H 3850 1150 60  0000 C CNN
F 1 "ACO3.6864MHZ" H 3850 1650 60  0000 C CNN
F 2 "Sockets_DIP:DIP-14__300" H 3900 1400 60  0000 C CNN
F 3 "~" H 3900 1400 60  0000 C CNN
	1    3850 1400
	1    0    0    -1  
$EndComp
$Comp
L C C11
U 1 1 54D111D6
P 4850 1300
F 0 "C11" H 4850 1400 40  0000 L CNN
F 1 "15pF" H 4856 1215 40  0000 L CNN
F 2 "Discret:C1" H 4888 1150 30  0000 C CNN
F 3 "~" H 4850 1300 60  0000 C CNN
	1    4850 1300
	1    0    0    -1  
$EndComp
$Comp
L C C10
U 1 1 54D111DC
P 4550 1100
F 0 "C10" H 4550 1200 40  0000 L CNN
F 1 "15pF" H 4556 1015 40  0000 L CNN
F 2 "Discret:C1" H 4588 950 30  0000 C CNN
F 3 "~" H 4550 1100 60  0000 C CNN
	1    4550 1100
	1    0    0    -1  
$EndComp
$Comp
L GND #PWR047
U 1 1 54D111E2
P 3250 1500
F 0 "#PWR047" H 3250 1500 30  0001 C CNN
F 1 "GND" H 3250 1430 30  0001 C CNN
F 2 "" H 3250 1500 60  0000 C CNN
F 3 "" H 3250 1500 60  0000 C CNN
	1    3250 1500
	0    1    1    0   
$EndComp
$Comp
L GND #PWR048
U 1 1 54D111E8
P 4700 700
F 0 "#PWR048" H 4700 700 30  0001 C CNN
F 1 "GND" H 4700 630 30  0001 C CNN
F 2 "" H 4700 700 60  0000 C CNN
F 3 "" H 4700 700 60  0000 C CNN
	1    4700 700 
	-1   0    0    1   
$EndComp
NoConn ~ 3300 1300
Text Label 4950 1500 0    60   ~ 0
UART_CLK
$Comp
L +5V #PWR049
U 1 1 54D111F0
P 4600 1300
F 0 "#PWR049" H 4600 1390 20  0001 C CNN
F 1 "+5V" H 4600 1390 30  0000 C CNN
F 2 "" H 4600 1300 60  0000 C CNN
F 3 "" H 4600 1300 60  0000 C CNN
	1    4600 1300
	0    1    1    0   
$EndComp
Text Label 9150 1700 2    60   ~ 0
UART_CLK
$Comp
L CONN_20X2 P1
U 1 1 54D11246
P 6450 9150
F 0 "P1" H 6450 10200 60  0000 C CNN
F 1 "CONN_20X2" V 6450 9150 50  0000 C CNN
F 2 "Pin_Headers:Pin_Header_Straight_2x20" H 6450 9150 60  0001 C CNN
F 3 "" H 6450 9150 60  0000 C CNN
	1    6450 9150
	1    0    0    -1  
$EndComp
Text Label 6050 8200 2    60   ~ 0
A9
Text Label 6050 8300 2    60   ~ 0
A10
Text Label 6050 8400 2    60   ~ 0
A11
Text Label 6050 8500 2    60   ~ 0
A12
Text Label 6050 8600 2    60   ~ 0
A13
Text Label 6050 8700 2    60   ~ 0
A14
Text Label 6050 8800 2    60   ~ 0
A15
Text Label 6050 8900 2    60   ~ 0
A16
Text Label 6050 9000 2    60   ~ 0
A17
Text Label 6050 9100 2    60   ~ 0
A18
Text Label 6050 9200 2    60   ~ 0
A19
Text Label 6050 9300 2    60   ~ 0
A20
Text Label 6050 9400 2    60   ~ 0
A21
Text Label 6050 9500 2    60   ~ 0
A22
Text Label 6050 9600 2    60   ~ 0
A23
Text Label 6850 8200 0    60   ~ 0
D8
Text Label 6850 8300 0    60   ~ 0
D9
Text Label 6850 8400 0    60   ~ 0
D10
Text Label 6850 8500 0    60   ~ 0
D11
Text Label 6850 8600 0    60   ~ 0
D12
Text Label 6850 8700 0    60   ~ 0
D13
Text Label 6850 8800 0    60   ~ 0
D14
Text Label 6850 8900 0    60   ~ 0
D15
Text Label 6850 9000 0    60   ~ 0
D15
Text Label 6850 9100 0    60   ~ 0
CS_UART
Text Label 6850 9300 0    60   ~ 0
RAM_HB_CS
Text Label 6850 9400 0    60   ~ 0
RAM_LB_CS
Text Label 6850 9500 0    60   ~ 0
ROM_HB_CS
Text Label 6850 9600 0    60   ~ 0
ROM_LB_CS
Text Label 6850 9200 0    60   ~ 0
IRQ_UART
Text Label 6850 9700 0    60   ~ 0
SS1
Text Label 6850 9800 0    60   ~ 0
SS2
Text Label 6850 9900 0    60   ~ 0
SS3
Text Label 6850 10000 0    60   ~ 0
SS4
Text Label 6850 10100 0    60   ~ 0
R/W
Text Label 6050 9900 2    60   ~ 0
AS
Text Label 6050 10000 2    60   ~ 0
UDS
Text Label 6050 10100 2    60   ~ 0
LDS
Text Label 6050 9700 2    60   ~ 0
HALT
Text Label 6050 9800 2    60   ~ 0
RESET
$Comp
L LED D1
U 1 1 54D112AD
P 1150 2150
F 0 "D1" H 1150 2250 50  0000 C CNN
F 1 "LED" H 1150 2050 50  0000 C CNN
F 2 "LEDs:LED-3MM" H 1150 2150 60  0000 C CNN
F 3 "~" H 1150 2150 60  0000 C CNN
	1    1150 2150
	0    -1   -1   0   
$EndComp
$Comp
L R R1
U 1 1 54D112BC
P 1150 2750
F 0 "R1" V 1230 2750 40  0000 C CNN
F 1 "500" V 1157 2751 40  0000 C CNN
F 2 "Discret:R1" V 1080 2750 30  0000 C CNN
F 3 "~" H 1150 2750 30  0000 C CNN
	1    1150 2750
	-1   0    0    1   
$EndComp
$Comp
L +5V #PWR050
U 1 1 54D113C8
P 1150 3150
F 0 "#PWR050" H 1150 3240 20  0001 C CNN
F 1 "+5V" H 1150 3240 30  0000 C CNN
F 2 "" H 1150 3150 60  0000 C CNN
F 3 "" H 1150 3150 60  0000 C CNN
	1    1150 3150
	-1   0    0    1   
$EndComp
$Comp
L GND #PWR051
U 1 1 54D113CE
P 1150 1800
F 0 "#PWR051" H 1150 1800 30  0001 C CNN
F 1 "GND" H 1150 1730 30  0001 C CNN
F 2 "" H 1150 1800 60  0000 C CNN
F 3 "" H 1150 1800 60  0000 C CNN
	1    1150 1800
	-1   0    0    1   
$EndComp
$Comp
L LED D3
U 1 1 54D115D1
P 1550 2150
F 0 "D3" H 1550 2250 50  0000 C CNN
F 1 "LED" H 1550 2050 50  0000 C CNN
F 2 "LEDs:LED-3MM" H 1550 2150 60  0000 C CNN
F 3 "~" H 1550 2150 60  0000 C CNN
	1    1550 2150
	0    -1   -1   0   
$EndComp
$Comp
L R R3
U 1 1 54D115D7
P 1550 2750
F 0 "R3" V 1630 2750 40  0000 C CNN
F 1 "500" V 1557 2751 40  0000 C CNN
F 2 "Discret:R1" V 1480 2750 30  0000 C CNN
F 3 "~" H 1550 2750 30  0000 C CNN
	1    1550 2750
	-1   0    0    1   
$EndComp
$Comp
L GND #PWR052
U 1 1 54D115DE
P 1550 1800
F 0 "#PWR052" H 1550 1800 30  0001 C CNN
F 1 "GND" H 1550 1730 30  0001 C CNN
F 2 "" H 1550 1800 60  0000 C CNN
F 3 "" H 1550 1800 60  0000 C CNN
	1    1550 1800
	-1   0    0    1   
$EndComp
Text Label 4600 4500 0    60   ~ 0
IND1
Text Label 1550 3150 3    60   ~ 0
IND1
Text Label 4600 4700 0    60   ~ 0
IND2
Text Label 1150 4950 3    60   ~ 0
IND2
$Comp
L LED D2
U 1 1 54D115E8
P 1150 3950
F 0 "D2" H 1150 4050 50  0000 C CNN
F 1 "LED" H 1150 3850 50  0000 C CNN
F 2 "LEDs:LED-3MM" H 1150 3950 60  0000 C CNN
F 3 "~" H 1150 3950 60  0000 C CNN
	1    1150 3950
	0    -1   -1   0   
$EndComp
$Comp
L R R2
U 1 1 54D115EE
P 1150 4550
F 0 "R2" V 1230 4550 40  0000 C CNN
F 1 "500" V 1157 4551 40  0000 C CNN
F 2 "Discret:R1" V 1080 4550 30  0000 C CNN
F 3 "~" H 1150 4550 30  0000 C CNN
	1    1150 4550
	-1   0    0    1   
$EndComp
$Comp
L GND #PWR053
U 1 1 54D115F5
P 1150 3600
F 0 "#PWR053" H 1150 3600 30  0001 C CNN
F 1 "GND" H 1150 3530 30  0001 C CNN
F 2 "" H 1150 3600 60  0000 C CNN
F 3 "" H 1150 3600 60  0000 C CNN
	1    1150 3600
	-1   0    0    1   
$EndComp
Text Label 4600 6600 0    60   ~ 0
IND3
Text Label 1550 4950 3    60   ~ 0
IND3
$Comp
L LED D4
U 1 1 54D115FE
P 1550 3950
F 0 "D4" H 1550 4050 50  0000 C CNN
F 1 "LED" H 1550 3850 50  0000 C CNN
F 2 "LEDs:LED-3MM" H 1550 3950 60  0000 C CNN
F 3 "~" H 1550 3950 60  0000 C CNN
	1    1550 3950
	0    -1   -1   0   
$EndComp
$Comp
L R R4
U 1 1 54D11604
P 1550 4550
F 0 "R4" V 1630 4550 40  0000 C CNN
F 1 "500" V 1557 4551 40  0000 C CNN
F 2 "Discret:R1" V 1480 4550 30  0000 C CNN
F 3 "~" H 1550 4550 30  0000 C CNN
	1    1550 4550
	-1   0    0    1   
$EndComp
$Comp
L GND #PWR054
U 1 1 54D1160B
P 1550 3600
F 0 "#PWR054" H 1550 3600 30  0001 C CNN
F 1 "GND" H 1550 3530 30  0001 C CNN
F 2 "" H 1550 3600 60  0000 C CNN
F 3 "" H 1550 3600 60  0000 C CNN
	1    1550 3600
	-1   0    0    1   
$EndComp
$Comp
L GND #PWR055
U 1 1 54D131C5
P 6800 7350
F 0 "#PWR055" H 6800 7350 30  0001 C CNN
F 1 "GND" H 6800 7280 30  0001 C CNN
F 2 "" H 6800 7350 60  0000 C CNN
F 3 "" H 6800 7350 60  0000 C CNN
	1    6800 7350
	0    1    1    0   
$EndComp
$Comp
L GND #PWR056
U 1 1 54D1354D
P 10150 4400
F 0 "#PWR056" H 10150 4400 30  0001 C CNN
F 1 "GND" H 10150 4330 30  0001 C CNN
F 2 "" H 10150 4400 60  0000 C CNN
F 3 "" H 10150 4400 60  0000 C CNN
	1    10150 4400
	1    0    0    -1  
$EndComp
Text Label 4600 6800 0    60   ~ 0
SW1
Text Label 4600 6900 0    60   ~ 0
SW2
Text Label 10500 8950 0    60   ~ 0
SW1
$Comp
L SW_PUSH SW2
U 1 1 54D16D5A
P 8850 8400
F 0 "SW2" H 9000 8510 50  0000 C CNN
F 1 "SW_PUSH" H 8850 8320 50  0000 C CNN
F 2 "SBC_Button" H 8850 8400 60  0000 C CNN
F 3 "~" H 8850 8400 60  0000 C CNN
	1    8850 8400
	1    0    0    -1  
$EndComp
Text Label 9300 8950 0    60   ~ 0
SW2
$Comp
L SW_PUSH SW1
U 1 1 54D19591
P 10050 8400
F 0 "SW1" H 10200 8510 50  0000 C CNN
F 1 "SW_PUSH" H 10050 8320 50  0000 C CNN
F 2 "SBC_Button" H 10050 8400 60  0000 C CNN
F 3 "~" H 10050 8400 60  0000 C CNN
	1    10050 8400
	1    0    0    -1  
$EndComp
Wire Wire Line
	3650 2400 3750 2400
Wire Wire Line
	3750 2500 3650 2500
Wire Wire Line
	3750 2300 3500 2300
Wire Wire Line
	3500 2300 3500 2600
Wire Wire Line
	3750 2200 3300 2200
Wire Wire Line
	3300 2200 3300 2600
Wire Wire Line
	3400 2600 3400 2100
Wire Wire Line
	3400 2100 3750 2100
Wire Wire Line
	3750 2000 3200 2000
Wire Wire Line
	3200 2000 3200 2600
Wire Wire Line
	2000 1500 2550 1500
Wire Wire Line
	2000 1300 2200 1300
Wire Wire Line
	2450 800  2450 1100
Wire Wire Line
	2150 800  2450 800 
Wire Wire Line
	2150 800  2150 900 
Connection ~ 2450 1500
Wire Wire Line
	2300 700  2300 800 
Connection ~ 2300 800 
Wire Wire Line
	900  1500 850  1500
Connection ~ 2150 1300
Wire Wire Line
	15600 4150 16300 4150
Wire Wire Line
	16300 4150 16300 3750
Wire Wire Line
	16300 3650 16300 3450
Wire Wire Line
	15300 4150 15250 4150
Wire Wire Line
	14150 3500 14600 3500
Wire Wire Line
	13700 2300 13750 2300
Wire Wire Line
	13750 2300 13750 2400
Wire Wire Line
	13750 2400 13700 2400
Wire Wire Line
	13700 2500 13750 2500
Wire Wire Line
	13750 2500 13750 2600
Wire Wire Line
	13750 2600 13700 2600
Wire Wire Line
	12300 2600 12150 2600
Wire Wire Line
	12150 2600 12150 2500
Wire Wire Line
	12150 2500 12300 2500
Wire Wire Line
	15300 1750 15150 1750
Wire Wire Line
	11150 1800 12300 1800
Wire Wire Line
	12300 1550 11150 1550
Wire Wire Line
	11150 1550 11150 1700
Wire Wire Line
	14050 1350 15300 1350
Wire Wire Line
	15300 1550 15400 1550
Wire Wire Line
	15400 1550 15400 1050
Wire Wire Line
	15400 1050 15300 1050
Wire Wire Line
	16150 5200 15950 5200
Wire Wire Line
	13750 5200 13550 5200
Wire Wire Line
	12900 4550 12900 4650
Wire Wire Line
	15300 4550 15300 4650
Wire Wire Line
	15300 6750 15300 6850
Wire Wire Line
	12900 6750 12900 6850
Wire Wire Line
	16150 7750 15950 7750
Wire Wire Line
	15300 7100 15300 7200
Wire Wire Line
	15300 9300 15300 9400
Wire Wire Line
	13750 7750 13550 7750
Wire Wire Line
	12900 7100 12900 7200
Wire Wire Line
	12900 9300 12900 9400
Wire Wire Line
	12850 3100 13150 3100
Connection ~ 13000 3100
Wire Wire Line
	6800 1900 8000 1900
Connection ~ 7500 1900
Wire Wire Line
	7500 1900 7500 2050
Wire Wire Line
	7000 1350 7000 1500
Wire Wire Line
	8000 1350 8000 1500
Wire Wire Line
	8000 1350 8100 1350
Wire Wire Line
	6350 1350 7000 1350
Wire Wire Line
	6350 1450 6350 1550
Wire Wire Line
	6350 1550 6800 1550
Wire Wire Line
	6800 1550 6800 1900
Connection ~ 7000 1900
Wire Wire Line
	15300 4650 15200 4650
Wire Wire Line
	14800 4650 14700 4650
Wire Wire Line
	12900 4650 12800 4650
Wire Wire Line
	12400 4650 12300 4650
Wire Wire Line
	15300 7200 15200 7200
Wire Wire Line
	14700 7200 14800 7200
Wire Wire Line
	12900 7200 12800 7200
Wire Wire Line
	12300 7200 12400 7200
Wire Wire Line
	12850 600  13000 600 
Wire Wire Line
	12450 600  12350 600 
Wire Wire Line
	9600 1450 9750 1450
Wire Wire Line
	10150 1300 10150 1600
Connection ~ 10150 1450
Wire Wire Line
	7100 2650 7100 2500
Wire Wire Line
	7200 2500 7200 2650
Wire Wire Line
	7100 2500 7200 2500
Wire Wire Line
	7150 2400 7150 2500
Connection ~ 7150 2500
Wire Wire Line
	7600 2500 7700 2500
Wire Wire Line
	6700 2500 6600 2500
Wire Wire Line
	750  6400 2000 6400
Wire Wire Line
	950  6300 2000 6300
Wire Wire Line
	1150 6200 2000 6200
Wire Wire Line
	1550 5950 2000 5950
Wire Wire Line
	2000 5750 1950 5750
Connection ~ 1950 6400
Wire Wire Line
	1950 5750 1950 6400
Wire Wire Line
	750  5350 1950 5350
Wire Wire Line
	1550 5550 1550 5350
Connection ~ 1550 5350
Connection ~ 1350 5350
Wire Wire Line
	750  6000 750  5350
Wire Wire Line
	950  5900 950  5350
Connection ~ 950  5350
Wire Wire Line
	1150 5800 1150 5350
Connection ~ 1150 5350
Wire Wire Line
	15350 2500 15350 2450
Wire Wire Line
	15350 2450 15450 2450
Wire Wire Line
	15950 2450 15850 2450
Wire Wire Line
	14850 2450 14950 2450
Wire Wire Line
	1950 6550 1950 7450
Connection ~ 1950 7250
Connection ~ 1950 7150
Connection ~ 1950 7050
Connection ~ 1950 6950
Connection ~ 1950 6850
Connection ~ 1950 6750
Connection ~ 1950 6650
Wire Wire Line
	1950 7450 2100 7450
Wire Wire Line
	9650 6400 9650 6450
Wire Wire Line
	9650 6450 9750 6450
Wire Wire Line
	10550 6450 10650 6450
Wire Wire Line
	10650 6450 10650 6400
Wire Wire Line
	10550 6850 10750 6850
Wire Wire Line
	9650 4700 9650 4750
Wire Wire Line
	9650 4750 9750 4750
Wire Wire Line
	10550 4750 10650 4750
Wire Wire Line
	10650 4750 10650 4700
Wire Wire Line
	10550 5150 10750 5150
Wire Wire Line
	4400 1500 4950 1500
Wire Wire Line
	4400 1300 4600 1300
Wire Wire Line
	4850 800  4850 1100
Wire Wire Line
	4550 800  4850 800 
Wire Wire Line
	4550 800  4550 900 
Connection ~ 4850 1500
Wire Wire Line
	4700 700  4700 800 
Connection ~ 4700 800 
Wire Wire Line
	3300 1500 3250 1500
Connection ~ 4550 1300
Wire Wire Line
	1150 2500 1150 2350
Wire Wire Line
	1150 1950 1150 1800
Wire Wire Line
	1150 3150 1150 3000
Wire Wire Line
	1550 2500 1550 2350
Wire Wire Line
	1550 1950 1550 1800
Wire Wire Line
	1550 3150 1550 3000
Wire Wire Line
	1150 4300 1150 4150
Wire Wire Line
	1150 3750 1150 3600
Wire Wire Line
	1150 4950 1150 4800
Wire Wire Line
	1550 4300 1550 4150
Wire Wire Line
	1550 3750 1550 3600
Wire Wire Line
	1550 4950 1550 4800
Wire Wire Line
	2000 6550 1950 6550
Wire Wire Line
	2000 6650 1950 6650
Wire Wire Line
	2000 6750 1950 6750
Wire Wire Line
	2000 6850 1950 6850
Wire Wire Line
	2000 6950 1950 6950
Wire Wire Line
	2000 7050 1950 7050
Wire Wire Line
	2000 7150 1950 7150
Wire Wire Line
	2000 7250 1950 7250
Wire Wire Line
	7000 7150 7000 7350
Wire Wire Line
	6800 7350 7300 7350
Wire Wire Line
	7100 7350 7100 7150
Connection ~ 7000 7350
Wire Wire Line
	7200 7350 7200 7150
Connection ~ 7100 7350
Wire Wire Line
	7300 7350 7300 7150
Connection ~ 7200 7350
Wire Wire Line
	10150 4200 10150 4400
Wire Wire Line
	13000 3100 13000 3250
NoConn ~ 9150 1800
NoConn ~ 11150 2600
NoConn ~ 11150 2700
NoConn ~ 11150 2800
NoConn ~ 11150 2900
NoConn ~ 11150 3000
NoConn ~ 11150 3400
NoConn ~ 11150 3500
NoConn ~ 11150 3600
NoConn ~ 11150 3700
Text Label 4600 3000 0    60   ~ 0
IPL0
Text Label 4600 3100 0    60   ~ 0
IPL1
Text Label 4600 3200 0    60   ~ 0
IPL2
Text Label 4600 3300 0    60   ~ 0
FC0
Text Label 4600 3400 0    60   ~ 0
FC1
Text Label 4600 3500 0    60   ~ 0
FC2
Text Label 4600 3600 0    60   ~ 0
VMA
Text Label 4600 3700 0    60   ~ 0
E
Text Label 4600 3900 0    60   ~ 0
VPA
Text Label 4600 4000 0    60   ~ 0
BERR
Text Label 4600 4100 0    60   ~ 0
DTACK
Text Label 4600 4200 0    60   ~ 0
HALT
Text Label 4600 4300 0    60   ~ 0
RESET
$Comp
L CONN_1 P2
U 1 1 54D1A7B0
P 7050 650
F 0 "P2" H 7130 650 40  0000 L CNN
F 1 "CONN_1" H 7050 705 30  0001 C CNN
F 2 "Pin_Headers:Pin_Header_Straight_1x01" H 7050 650 60  0001 C CNN
F 3 "" H 7050 650 60  0000 C CNN
	1    7050 650 
	1    0    0    -1  
$EndComp
$Comp
L +5V #PWR057
U 1 1 54D1A7C7
P 6750 650
F 0 "#PWR057" H 6750 740 20  0001 C CNN
F 1 "+5V" H 6750 740 30  0000 C CNN
F 2 "" H 6750 650 60  0000 C CNN
F 3 "" H 6750 650 60  0000 C CNN
	1    6750 650 
	0    -1   -1   0   
$EndComp
$Comp
L CONN_1 P3
U 1 1 54D1A7D7
P 7050 800
F 0 "P3" H 7130 800 40  0000 L CNN
F 1 "CONN_1" H 7050 855 30  0001 C CNN
F 2 "Pin_Headers:Pin_Header_Straight_1x01" H 7050 800 60  0001 C CNN
F 3 "" H 7050 800 60  0000 C CNN
	1    7050 800 
	1    0    0    -1  
$EndComp
$Comp
L GND #PWR058
U 1 1 54D1A7DD
P 6750 800
F 0 "#PWR058" H 6750 800 30  0001 C CNN
F 1 "GND" H 6750 730 30  0001 C CNN
F 2 "" H 6750 800 60  0000 C CNN
F 3 "" H 6750 800 60  0000 C CNN
	1    6750 800 
	0    1    1    0   
$EndComp
Wire Wire Line
	6750 650  6900 650 
Wire Wire Line
	6750 800  6900 800 
$Comp
L CONN_1 P4
U 1 1 54D1AA5E
P 7050 950
F 0 "P4" H 7130 950 40  0000 L CNN
F 1 "CONN_1" H 7050 1005 30  0001 C CNN
F 2 "Pin_Headers:Pin_Header_Straight_1x01" H 7050 950 60  0001 C CNN
F 3 "" H 7050 950 60  0000 C CNN
	1    7050 950 
	1    0    0    -1  
$EndComp
Wire Wire Line
	6900 950  6750 950 
Wire Wire Line
	6750 950  6750 1350
Connection ~ 6750 1350
Text Label 6900 950  2    60   ~ 0
WALL
$Comp
L R R8
U 1 1 54D19BB8
P 9150 9250
F 0 "R8" V 9230 9250 40  0000 C CNN
F 1 "10K" V 9150 9250 40  0000 C CNN
F 2 "Discret:R1" V 9080 9250 30  0000 C CNN
F 3 "~" H 9150 9250 30  0000 C CNN
	1    9150 9250
	-1   0    0    1   
$EndComp
$Comp
L R R6
U 1 1 54D19BD2
P 10350 9250
F 0 "R6" V 10430 9250 40  0000 C CNN
F 1 "10K" V 10350 9250 40  0000 C CNN
F 2 "Discret:R1" V 10280 9250 30  0000 C CNN
F 3 "~" H 10350 9250 30  0000 C CNN
	1    10350 9250
	-1   0    0    1   
$EndComp
$Comp
L +5V #PWR059
U 1 1 54D19D82
P 9150 8300
F 0 "#PWR059" H 9150 8390 20  0001 C CNN
F 1 "+5V" H 9150 8390 30  0000 C CNN
F 2 "" H 9150 8300 60  0000 C CNN
F 3 "" H 9150 8300 60  0000 C CNN
	1    9150 8300
	1    0    0    -1  
$EndComp
$Comp
L C C17
U 1 1 54D19F39
P 9150 8700
F 0 "C17" H 9150 8800 40  0000 L CNN
F 1 "0.1uF" H 9156 8615 40  0000 L CNN
F 2 "Discret:C1" H 9188 8550 30  0000 C CNN
F 3 "~" H 9150 8700 60  0000 C CNN
	1    9150 8700
	-1   0    0    1   
$EndComp
$Comp
L C C16
U 1 1 54D19F44
P 10350 8700
F 0 "C16" H 10350 8800 40  0000 L CNN
F 1 "0.1uF" H 10356 8615 40  0000 L CNN
F 2 "Discret:C1" H 10388 8550 30  0000 C CNN
F 3 "~" H 10350 8700 60  0000 C CNN
	1    10350 8700
	-1   0    0    1   
$EndComp
$Comp
L GND #PWR060
U 1 1 54D1A0FA
P 9150 9600
F 0 "#PWR060" H 9150 9600 30  0001 C CNN
F 1 "GND" H 9150 9530 30  0001 C CNN
F 2 "" H 9150 9600 60  0000 C CNN
F 3 "" H 9150 9600 60  0000 C CNN
	1    9150 9600
	1    0    0    -1  
$EndComp
$Comp
L GND #PWR061
U 1 1 54D1A100
P 10350 9600
F 0 "#PWR061" H 10350 9600 30  0001 C CNN
F 1 "GND" H 10350 9530 30  0001 C CNN
F 2 "" H 10350 9600 60  0000 C CNN
F 3 "" H 10350 9600 60  0000 C CNN
	1    10350 9600
	1    0    0    -1  
$EndComp
Wire Wire Line
	9150 9500 9150 9600
$Comp
L +5V #PWR062
U 1 1 54D68192
P 10350 8300
F 0 "#PWR062" H 10350 8390 20  0001 C CNN
F 1 "+5V" H 10350 8390 30  0000 C CNN
F 2 "" H 10350 8300 60  0000 C CNN
F 3 "" H 10350 8300 60  0000 C CNN
	1    10350 8300
	1    0    0    -1  
$EndComp
Wire Wire Line
	10350 8300 10350 8500
Connection ~ 10350 8400
Wire Wire Line
	9750 8400 9650 8400
Wire Wire Line
	9650 8400 9650 8950
Wire Wire Line
	9650 8950 10500 8950
Wire Wire Line
	10350 8900 10350 9000
Connection ~ 10350 8950
Wire Wire Line
	10350 9500 10350 9600
Wire Wire Line
	9150 8300 9150 8500
Connection ~ 9150 8400
Wire Wire Line
	8450 8400 8450 8950
Wire Wire Line
	8450 8950 9300 8950
Wire Wire Line
	9150 8900 9150 9000
Connection ~ 9150 8950
Wire Wire Line
	8450 8400 8550 8400
$Comp
L C C15
U 1 1 54DD2D61
P 8000 1700
F 0 "C15" H 8000 1800 40  0000 L CNN
F 1 "22uF" H 8006 1615 40  0000 L CNN
F 2 "Discret:C1" H 8038 1550 30  0000 C CNN
F 3 "~" H 8000 1700 60  0000 C CNN
	1    8000 1700
	1    0    0    -1  
$EndComp
Connection ~ 1950 6300
Connection ~ 1950 6200
Connection ~ 1950 6100
Connection ~ 1950 5950
Connection ~ 1950 5850
Connection ~ 1950 5750
Wire Wire Line
	1350 5300 1350 5350
Wire Wire Line
	2000 5850 1950 5850
Wire Wire Line
	2000 6100 1950 6100
Text Label 12300 1250 2    60   ~ 0
RS232_RTS
Text Label 12300 2100 2    60   ~ 0
RS232_CTS
Wire Wire Line
	15300 1450 13800 1450
Wire Wire Line
	13800 1450 13800 1250
Wire Wire Line
	13800 1250 13700 1250
Wire Wire Line
	15300 1250 14300 1250
Wire Wire Line
	14300 1250 14300 2100
Wire Wire Line
	14300 2100 13700 2100
Wire Wire Line
	15450 2300 15450 2500
Wire Wire Line
	15300 1150 13900 1150
Wire Wire Line
	13900 1150 13900 1550
Wire Wire Line
	13900 1550 13700 1550
Wire Wire Line
	14050 1800 14050 1350
Text Label 9150 4000 2    60   ~ 0
IRQ_UART
Text Label 9150 3600 2    60   ~ 0
IAK_UART
Text Label 4600 8500 0    60   ~ 0
IAK_UART
Wire Wire Line
	13700 1800 14050 1800
Connection ~ 15450 2450
$EndSCHEMATC
